<?xml version="1.0" encoding="UTF-8" standalone="no"?>
<svg width="5px" height="5px" viewBox="0 0 5 5" version="1.1" xmlns="http://www.w3.org/2000/svg" xmlns:xlink="http://www.w3.org/1999/xlink">
    <!-- Generator: Sketch 40.3 (33839) - http://www.bohemiancoding.com/sketch -->
    <title>Triangle</title>
    <desc>Created with Sketch.</desc>
    <defs></defs>
    <g id="MAIN" stroke="none" stroke-width="1" fill="none" fill-rule="evenodd">
        <g id="Homepage-1920" transform="translate(-481.000000, -3226.000000)" fill="#216EBE">
            <g id="05-Features&amp;Stats" transform="translate(0.000000, 2800.000000)">
                <g id="1" transform="translate(394.000000, 67.000000)">
                    <polygon id="Triangle" points="89.5 364 87 359 92 359"></polygon>
                </g>
            </g>
        </g>
    </g>
</svg>