<?xml version="1.0" encoding="UTF-8" standalone="no"?>
<svg width="132px" height="23px" viewBox="0 0 132 23" version="1.1" xmlns="http://www.w3.org/2000/svg" xmlns:xlink="http://www.w3.org/1999/xlink">
    <!-- Generator: Sketch 40.3 (33839) - http://www.bohemiancoding.com/sketch -->
    <title>Rating/Rating 4,5</title>
    <desc>Created with Sketch.</desc>
    <defs></defs>
    <g id="MAIN" stroke="none" stroke-width="1" fill="none" fill-rule="evenodd">
        <g id="Homepage-1920" transform="translate(-922.000000, -4154.000000)">
            <g id="06-Сustomers-feedbacks" transform="translate(0.000000, 4030.000000)">
                <g id="Group-7" transform="translate(869.000000, 120.000000)">
                    <g id="Mark">
                        <g id="Rating/Rating-4,5" transform="translate(53.000000, 4.000000)">
                            <path d="M120,1.70530257e-13 C120.286091,1.70530257e-13 120.52833,0.16926658 120.623345,0.432912103 L123.152227,7.49389315 C123.245155,7.75343524 123.477995,7.91962425 123.757822,7.92577939 L131.354908,8.11761485 C131.639956,8.12479586 131.876973,8.29714001 131.965724,8.56386311 C132.054475,8.82853449 131.967812,9.10449031 131.741236,9.27580861 L125.700947,13.8429287 C125.480636,14.0101436 125.392929,14.2758408 125.471239,14.5374346 L127.635719,21.7307513 C127.716117,21.9995262 127.620057,22.2734303 127.38826,22.4375676 C127.156464,22.600679 126.860975,22.6037566 126.626046,22.4447486 L120.375887,18.1997479 C120.145134,18.0438175 119.854866,18.0438175 119.624113,18.1997479 L113.373954,22.4447486 C113.139025,22.6037566 112.843536,22.600679 112.61174,22.4375676 C112.379943,22.2734303 112.283883,21.9995262 112.364281,21.7307513 L114.528761,14.5374346 C114.607071,14.2758408 114.519364,14.0101436 114.299053,13.8429287 L108.258764,9.27580861 C108.032188,9.10449031 107.945525,8.82853449 108.034276,8.56386311 C108.123027,8.29714001 108.360044,8.12479586 108.645092,8.11761485 L116.242178,7.92577939 C116.522005,7.91962425 116.754845,7.75343524 116.847773,7.49389315 L119.376655,0.432912103 C119.47167,0.16926658 119.713909,1.70530257e-13 120,1.70530257e-13 Z" id="Star-Icon" fill="#C8CFD9"></path>
                            <path d="M120,1.70530257e-13 C120.286091,1.70530257e-13 119.854866,18.0438175 119.624113,18.1997479 L113.373954,22.4447486 C113.139025,22.6037566 112.843536,22.600679 112.61174,22.4375676 C112.379943,22.2734303 112.283883,21.9995262 112.364281,21.7307513 L114.528761,14.5374346 C114.607071,14.2758408 114.519364,14.0101436 114.299053,13.8429287 L108.258764,9.27580861 C108.032188,9.10449031 107.945525,8.82853449 108.034276,8.56386311 C108.123027,8.29714001 108.360044,8.12479586 108.645092,8.11761485 L116.242178,7.92577939 C116.522005,7.91962425 116.754845,7.75343524 116.847773,7.49389315 L119.376655,0.432912103 C119.47167,0.16926658 119.713909,1.70530257e-13 120,1.70530257e-13 Z" id="Star-Icon" fill="#4CAF50"></path>
                            <path d="M93,1.70530257e-13 C93.2860915,1.70530257e-13 93.5283295,0.16926658 93.6233453,0.432912103 L96.152227,7.49389315 C96.2451545,7.75343524 96.4779954,7.91962425 96.7578221,7.92577939 L104.354908,8.11761485 C104.639956,8.12479586 104.876973,8.29714001 104.965724,8.56386311 C105.054475,8.82853449 104.967812,9.10449031 104.741236,9.27580861 L98.7009471,13.8429287 C98.4806358,14.0101436 98.3929289,14.2758408 98.4712386,14.5374346 L100.635719,21.7307513 C100.716117,21.9995262 100.620057,22.2734303 100.38826,22.4375676 C100.156464,22.600679 99.860975,22.6037566 99.6260459,22.4447486 L93.3758866,18.1997479 C93.145134,18.0438175 92.854866,18.0438175 92.6241134,18.1997479 L86.3739541,22.4447486 C86.139025,22.6037566 85.8435364,22.600679 85.6117396,22.4375676 C85.3799429,22.2734303 85.2838829,21.9995262 85.3642809,21.7307513 L87.5287614,14.5374346 C87.6070711,14.2758408 87.5193642,14.0101436 87.2990529,13.8429287 L81.2587637,9.27580861 C81.0321876,9.10449031 80.9455248,8.82853449 81.0342759,8.56386311 C81.1230269,8.29714001 81.3600443,8.12479586 81.6450916,8.11761485 L89.2421779,7.92577939 C89.5220046,7.91962425 89.7548455,7.75343524 89.847773,7.49389315 L92.3766547,0.432912103 C92.4716705,0.16926658 92.7139085,1.70530257e-13 93,1.70530257e-13 Z" id="Star-Icon" fill="#4CAF50"></path>
                            <path d="M66,1.70530257e-13 C66.2860915,1.70530257e-13 66.5283295,0.16926658 66.6233453,0.432912103 L69.152227,7.49389315 C69.2451545,7.75343524 69.4779954,7.91962425 69.7578221,7.92577939 L77.3549084,8.11761485 C77.6399557,8.12479586 77.8769731,8.29714001 77.9657241,8.56386311 C78.0544752,8.82853449 77.9678124,9.10449031 77.7412363,9.27580861 L71.7009471,13.8429287 C71.4806358,14.0101436 71.3929289,14.2758408 71.4712386,14.5374346 L73.6357191,21.7307513 C73.7161171,21.9995262 73.6200571,22.2734303 73.3882604,22.4375676 C73.1564636,22.600679 72.860975,22.6037566 72.6260459,22.4447486 L66.3758866,18.1997479 C66.145134,18.0438175 65.854866,18.0438175 65.6241134,18.1997479 L59.3739541,22.4447486 C59.139025,22.6037566 58.8435364,22.600679 58.6117396,22.4375676 C58.3799429,22.2734303 58.2838829,21.9995262 58.3642809,21.7307513 L60.5287614,14.5374346 C60.6070711,14.2758408 60.5193642,14.0101436 60.2990529,13.8429287 L54.2587637,9.27580861 C54.0321876,9.10449031 53.9455248,8.82853449 54.0342759,8.56386311 C54.1230269,8.29714001 54.3600443,8.12479586 54.6450916,8.11761485 L62.2421779,7.92577939 C62.5220046,7.91962425 62.7548455,7.75343524 62.847773,7.49389315 L65.3766547,0.432912103 C65.4716705,0.16926658 65.7139085,1.70530257e-13 66,1.70530257e-13 Z" id="Star-Icon" fill="#4CAF50"></path>
                            <path d="M39,1.70530257e-13 C39.2860915,1.70530257e-13 39.5283295,0.16926658 39.6233453,0.432912103 L42.152227,7.49389315 C42.2451545,7.75343524 42.4779954,7.91962425 42.7578221,7.92577939 L50.3549084,8.11761485 C50.6399557,8.12479586 50.8769731,8.29714001 50.9657241,8.56386311 C51.0544752,8.82853449 50.9678124,9.10449031 50.7412363,9.27580861 L44.7009471,13.8429287 C44.4806358,14.0101436 44.3929289,14.2758408 44.4712386,14.5374346 L46.6357191,21.7307513 C46.7161171,21.9995262 46.6200571,22.2734303 46.3882604,22.4375676 C46.1564636,22.600679 45.860975,22.6037566 45.6260459,22.4447486 L39.3758866,18.1997479 C39.145134,18.0438175 38.854866,18.0438175 38.6241134,18.1997479 L32.3739541,22.4447486 C32.139025,22.6037566 31.8435364,22.600679 31.6117396,22.4375676 C31.3799429,22.2734303 31.2838829,21.9995262 31.3642809,21.7307513 L33.5287614,14.5374346 C33.6070711,14.2758408 33.5193642,14.0101436 33.2990529,13.8429287 L27.2587637,9.27580861 C27.0321876,9.10449031 26.9455248,8.82853449 27.0342759,8.56386311 C27.1230269,8.29714001 27.3600443,8.12479586 27.6450916,8.11761485 L35.2421779,7.92577939 C35.5220046,7.91962425 35.7548455,7.75343524 35.847773,7.49389315 L38.3766547,0.432912103 C38.4716705,0.16926658 38.7139085,1.70530257e-13 39,1.70530257e-13 Z" id="Star-Icon" fill="#4CAF50"></path>
                            <path d="M12,1.70530257e-13 C12.2860915,1.70530257e-13 12.5283295,0.16926658 12.6233453,0.432912103 L15.152227,7.49389315 C15.2451545,7.75343524 15.4779954,7.91962425 15.7578221,7.92577939 L23.3549084,8.11761485 C23.6399557,8.12479586 23.8769731,8.29714001 23.9657241,8.56386311 C24.0544752,8.82853449 23.9678124,9.10449031 23.7412363,9.27580861 L17.7009471,13.8429287 C17.4806358,14.0101436 17.3929289,14.2758408 17.4712386,14.5374346 L19.6357191,21.7307513 C19.7161171,21.9995262 19.6200571,22.2734303 19.3882604,22.4375676 C19.1564636,22.600679 18.860975,22.6037566 18.6260459,22.4447486 L12.3758866,18.1997479 C12.145134,18.0438175 11.854866,18.0438175 11.6241134,18.1997479 L5.37395415,22.4447486 C5.13902501,22.6037566 4.84353636,22.600679 4.61173961,22.4375676 C4.37994286,22.2734303 4.28388294,21.9995262 4.36428092,21.7307513 L6.52876138,14.5374346 C6.6070711,14.2758408 6.51936422,14.0101436 6.29905289,13.8429287 L0.258763694,9.27580861 C0.0321875911,9.10449031 -0.054475158,8.82853449 0.0342758501,8.56386311 C0.123026858,8.29714001 0.360044256,8.12479586 0.645091612,8.11761485 L8.2421779,7.92577939 C8.52200461,7.91962425 8.75484549,7.75343524 8.84777302,7.49389315 L11.3766547,0.432912103 C11.4716705,0.16926658 11.7139085,1.70530257e-13 12,1.70530257e-13 Z" id="Star-Icon" fill="#4CAF50"></path>
                        </g>
                    </g>
                </g>
            </g>
        </g>
    </g>
</svg>