<?xml version="1.0" encoding="UTF-8" standalone="no"?>
<svg width="51px" height="60px" viewBox="0 0 51 60" version="1.1" xmlns="http://www.w3.org/2000/svg" xmlns:xlink="http://www.w3.org/1999/xlink">
    <!-- Generator: Sketch 40.3 (33839) - http://www.bohemiancoding.com/sketch -->
    <title>Icon</title>
    <desc>Created with Sketch.</desc>
    <defs></defs>
    <g id="MAIN" stroke="none" stroke-width="1" fill="none" fill-rule="evenodd">
        <g id="Homepage-1920" transform="translate(-935.000000, -2154.000000)">
            <g id="04-Request-for-Critiques" transform="translate(0.000000, 1933.000000)">
                <g id="2" transform="translate(769.000000, 221.000000)">
                    <g id="Icon" transform="translate(166.000000, 0.000000)">
                        <path d="M21.5954348,46.9565217 C11.5258696,46.9565217 3.33456522,38.7626087 3.33456522,28.6956522 C3.33456522,18.6286957 11.5258696,10.4347826 21.5954348,10.4347826 C31.6623913,10.4347826 39.8563043,18.6286957 39.8563043,28.6956522 C39.8563043,38.7626087 31.6623913,46.9565217 21.5954348,46.9565217 L21.5954348,46.9565217 Z M21.5954348,13.0434783 C12.9632609,13.0434783 5.94326087,20.0634783 5.94326087,28.6956522 C5.94326087,37.3278261 12.9632609,44.3478261 21.5954348,44.3478261 C30.2276087,44.3478261 37.2476087,37.3278261 37.2476087,28.6956522 C37.2476087,20.0634783 30.2276087,13.0434783 21.5954348,13.0434783 L21.5954348,13.0434783 Z M21.5954348,60 C20.8754348,60 20.291087,59.4130435 20.291087,58.6956522 L20.291087,50.8695652 C20.291087,50.1521739 20.8754348,49.5652174 21.5954348,49.5652174 C22.3154348,49.5652174 22.8997826,50.1521739 22.8997826,50.8695652 L22.8997826,58.6956522 C22.8997826,59.4130435 22.3154348,60 21.5954348,60 Z M21.5954348,7.82608696 C20.8754348,7.82608696 20.291087,7.23913043 20.291087,6.52173913 L20.291087,1.30434783 C20.291087,0.586956522 20.8754348,0 21.5954348,0 C22.3154348,0 22.8997826,0.586956522 22.8997826,1.30434783 L22.8997826,6.52173913 C22.8997826,7.23913043 22.3154348,7.82608696 21.5954348,7.82608696 Z M48.9867391,30 L43.7693478,30 C43.0519565,30 42.465,29.4130435 42.465,28.6956522 C42.465,27.9782609 43.0519565,27.3913043 43.7693478,27.3913043 L48.9867391,27.3913043 C49.7041304,27.3913043 50.291087,27.9782609 50.291087,28.6956522 C50.291087,29.4130435 49.7041304,30 48.9867391,30 Z M41.8832609,51.5921739 C41.5519565,51.5921739 41.2154348,51.4643478 40.9597826,51.2113043 L36.0032609,46.2547826 C35.4945652,45.7513043 35.4945652,44.9165217 36.0032609,44.4104348 C36.5093478,43.9069565 37.338913,43.9069565 37.8476087,44.4104348 L42.8041304,49.3669565 C43.3128261,49.8704348 43.3128261,50.7078261 42.8041304,51.2113043 C42.5536957,51.4669565 42.2197826,51.5921739 41.8832609,51.5921739 Z M4.95978261,14.6686957 C4.62586957,14.6686957 4.29195652,14.5408696 4.03630435,14.2878261 L0.381521739,10.6382609 C-0.127173913,10.1347826 -0.127173913,9.2973913 0.381521739,8.79391304 C0.890217391,8.29043478 1.71717391,8.29043478 2.22586957,8.79391304 L5.88065217,12.4434783 C6.38934783,12.9521739 6.38934783,13.7869565 5.88065217,14.2878261 C5.625,14.5408696 5.29108696,14.6686957 4.95978261,14.6686957 Z M37.3076087,13.7478261 C36.971087,13.7478261 36.6397826,13.62 36.3841304,13.3669565 C35.8780435,12.8608696 35.8780435,12.0286957 36.3841304,11.5226087 L39.1180435,8.78869565 C39.6267391,8.28 40.4536957,8.28 40.9623913,8.78869565 C41.471087,9.2973913 41.471087,10.1243478 40.9623913,10.6330435 L38.2284783,13.3669565 C37.9754348,13.62 37.638913,13.7478261 37.3076087,13.7478261 L37.3076087,13.7478261 Z M1.305,49.7478261 C0.971086957,49.7478261 0.637173913,49.62 0.381521739,49.3669565 C-0.127173913,48.8582609 -0.127173913,48.0313043 0.381521739,47.5226087 L4.41978261,43.4869565 C4.92847826,42.9782609 5.75543478,42.9782609 6.26413043,43.4869565 C6.77282609,43.9956522 6.77282609,44.8226087 6.26413043,45.3313043 L2.22586957,49.3669565 C1.97282609,49.62 1.63891304,49.7478261 1.305,49.7478261 Z" id="Shape" fill="#216EBE"></path>
                        <path d="M39.6086957,24.6086957 L13.5217391,24.6086957 C12.8017391,24.6086957 12.2173913,24.0217391 12.2173913,23.3043478 C12.2173913,22.5869565 12.8017391,22 13.5217391,22 L39.6086957,22 C40.326087,22 40.9130435,22.5869565 40.9130435,23.3043478 C40.9130435,24.0217391 40.326087,24.6086957 39.6086957,24.6086957 Z M34.3913043,29.826087 L8.30434783,29.826087 C7.58434783,29.826087 7,29.2391304 7,28.5217391 C7,27.8043478 7.58434783,27.2173913 8.30434783,27.2173913 L34.3913043,27.2173913 C35.1113043,27.2173913 35.6956522,27.8043478 35.6956522,28.5217391 C35.6956522,29.2391304 35.1113043,29.826087 34.3913043,29.826087 Z M42.2173913,35.0434783 L16.1304348,35.0434783 C15.4104348,35.0434783 14.826087,34.4565217 14.826087,33.7391304 C14.826087,33.0217391 15.4104348,32.4347826 16.1304348,32.4347826 L42.2173913,32.4347826 C42.9347826,32.4347826 43.5217391,33.0217391 43.5217391,33.7391304 C43.5217391,34.4565217 42.9347826,35.0434783 42.2173913,35.0434783 Z" id="Shape" fill="#44A1EB"></path>
                    </g>
                </g>
            </g>
        </g>
    </g>
</svg>