<?xml version="1.0" encoding="UTF-8" standalone="no"?>
<svg width="60px" height="60px" viewBox="0 0 60 60" version="1.1" xmlns="http://www.w3.org/2000/svg" xmlns:xlink="http://www.w3.org/1999/xlink">
    <!-- Generator: Sketch 40.3 (33839) - http://www.bohemiancoding.com/sketch -->
    <title>Icon3</title>
    <desc>Created with Sketch.</desc>
    <defs>
        <path d="M58.4,38.2443816 C58.161461,39.1391604 57.8948207,40.0185253 57.6,40.8261815 L57.6,30.3172495 C57.8910418,30.3178048 58.1584177,30.3183257 58.4,30.318804 L58.4,38.2443852 Z M56,44.0984739 C55.7465794,44.51488 55.4776169,44.9315792 55.2,45.3430389 L55.2,30.3129025 C55.4763026,30.3133772 55.7432214,30.3138445 56,30.3143013 L56,44.0984739 Z M53.6,47.5560328 C53.3275338,47.9111169 53.0588807,48.2520676 52.8,48.5740977 L52.8,30.3089974 C53.0721105,30.3094153 53.3389307,30.3098337 53.6,30.3102506 L53.6,47.5560328 Z M51.2,50.4850356 C50.7503182,51.0008452 50.4520438,51.3249956 50.4,51.3813154 L50.4,30.3055354 C50.6700633,30.3058992 50.9368442,30.3062675 51.2,30.3066389 L51.2,50.4850356 Z M48.8,49.9284399 C48.5562995,49.7046762 48.2886706,49.458944 48.0000002,49.1938953 L48,30.3025436 C48.2687905,30.3028508 48.5355518,30.3031653 48.8,30.3034861 L48.8,49.9284399 Z M46.4,47.7248535 C46.1417607,47.4877559 45.8747095,47.2425704 45.6,46.9903564 L45.6,30.3000684 C45.8678648,30.3003135 46.1346178,30.3005685 46.4000055,30.3008324 L46.4,47.7248535 Z M44,45.5214113 C43.7373285,45.2802606 43.4704016,45.035206 43.2,44.7869646 L43.2,30.2981774 C43.467095,30.2983521 43.7338418,30.2985392 44.0000008,30.2987376 L44,45.521411 Z M41.6,43.3181278 C41.3348663,43.0747357 41.0679808,42.8297388 40.8,42.5837404 L40.8,30.2969656 C41.0663797,30.2970579 41.3331256,30.2971653 41.6,30.2972868 L41.6,43.3181274 Z M39.2,41.115036 C38.93292,40.8698811 38.6660409,40.6249152 38.4,40.3807236 L38.4,30.2965677 C38.6656338,30.2965601 38.9323831,30.296571 39.2,30.2965993 L39.2,41.1150356 Z M36.8,38.9121942 C36.5308172,38.6651419 36.2639149,38.4201893 36,38.1779856 L36,30.2971816 C36.2647612,30.2970481 36.5315187,30.2969375 36.8,30.2968485 L36.8,38.9121942 Z M34.4,36.7097117 C34.127669,36.4598206 33.860692,36.2148534 33.6,35.9756653 L33.6,30.2991154 C33.8636068,30.2988143 34.1303803,30.2985423 34.4,30.2982981 L34.4,36.7097117 Z M32,34.5078334 C31.7203838,34.2513544 31.4531522,34.0062605 31.2,33.7741083 L31.2,30.3028937 C31.4618404,30.302351 31.7286452,30.3018475 32,30.3013817 L32,34.5078334 Z M29.6,32.307438 C29.2566298,31.9928842 28.9855262,31.7447479 28.8,31.5752567 L28.8,30.8114273 C29.0339934,30.6216714 29.3515559,30.4373274 29.6,30.353399 L29.6,32.307438 Z" id="path-1"></path>
        <mask id="mask-2" maskContentUnits="userSpaceOnUse" maskUnits="objectBoundingBox" x="0" y="0" width="29.6" height="21.08475" fill="white">
            <use xlink:href="#path-1"></use>
        </mask>
        <circle id="path-3" cx="30" cy="30" r="30"></circle>
        <mask id="mask-4" maskContentUnits="userSpaceOnUse" maskUnits="objectBoundingBox" x="0" y="0" width="60" height="60" fill="white">
            <use xlink:href="#path-3"></use>
        </mask>
        <path d="M29.6842105,30.3157895 L29.6842105,10.1114122 C29.6842105,9.75317641 29.401443,9.47368421 29.0526316,9.47368421 C28.7013883,9.47368421 28.4210526,9.75920478 28.4210526,10.1114122 L28.4210526,30.9412193 C28.4210526,31.2994552 28.7038202,31.5789474 29.0526316,31.5789474 C29.1070292,31.5789474 29.159726,31.5720991 29.2099442,31.5592154 C29.2603243,31.5721038 29.31314,31.5789474 29.3675658,31.5789474 L40.7376974,31.5789474 C41.0868822,31.5789474 41.3684211,31.2961798 41.3684211,30.9473684 C41.3684211,30.5961252 41.0860364,30.3157895 40.7376974,30.3157895 L29.6842105,30.3157895 Z" id="path-5"></path>
        <mask id="mask-6" maskContentUnits="userSpaceOnUse" maskUnits="objectBoundingBox" x="0" y="0" width="12.9473684" height="22.1052632" fill="white">
            <use xlink:href="#path-5"></use>
        </mask>
    </defs>
    <g id="MAIN" stroke="none" stroke-width="1" fill="none" fill-rule="evenodd">
        <g id="Homepage-1920" transform="translate(-1182.000000, -806.000000)">
            <g id="02-Why-Us" transform="translate(360.000000, 720.000000)">
                <g id="3" transform="translate(822.000000, 86.000000)">
                    <g id="Group-13">
                        <g id="Icon3">
                            <use id="Triangle-1" stroke="#44A1EB" mask="url(#mask-2)" stroke-width="2" xlink:href="#path-1"></use>
                            <use id="Oval-10" stroke="#216EBE" mask="url(#mask-4)" stroke-width="4" xlink:href="#path-3"></use>
                            <use id="Combined-Shape" stroke="#235BCC" mask="url(#mask-6)" stroke-width="2" xlink:href="#path-5"></use>
                        </g>
                    </g>
                </g>
            </g>
        </g>
    </g>
</svg>