<?xml version="1.0" encoding="UTF-8" standalone="no"?>
<svg width="36px" height="34px" viewBox="0 0 36 34" version="1.1" xmlns="http://www.w3.org/2000/svg" xmlns:xlink="http://www.w3.org/1999/xlink">
    <!-- Generator: Sketch 40.3 (33839) - http://www.bohemiancoding.com/sketch -->
    <title>icon</title>
    <desc>Created with Sketch.</desc>
    <defs></defs>
    <g id="MAIN" stroke="none" stroke-width="1" fill="none" fill-rule="evenodd">
        <g id="Homepage-1920" transform="translate(-394.000000, -1553.000000)" fill="#8A9199">
            <g id="03-How-it-works?" transform="translate(0.000000, 1163.000000)">
                <g id="Group-18" transform="translate(364.000000, 123.000000)">
                    <g id="2" transform="translate(0.000000, 247.000000)">
                        <g id="icon" transform="translate(30.000000, 20.000000)">
                            <g id="noun_626783_cc">
                                <path d="M18.5841509,23.1660232 L17.4158491,23.1660232 C15.1376604,23.1660232 10.9901887,19.0540541 10.9901887,16.7953668 L10.9901887,16.7953668 C9.82188679,16.5637066 9.82188679,15.0579151 9.82188679,14.4787645 C9.82188679,13.8996139 9.82188679,12.9150579 10.9901887,12.7413127 L10.9901887,11.5830116 C10.9901887,9.44015444 12.9178868,5.21235521 17.4158491,5.21235521 L18.5841509,5.21235521 C23.0821132,5.21235521 25.0098113,9.44015444 25.0098113,11.5830116 L25.0098113,12.7413127 C26.1781132,12.8571429 26.1781132,13.8416988 26.1781132,14.4787645 C26.1781132,15 26.1781132,16.5637066 25.0098113,16.7953668 L25.0098113,16.7953668 C25.0098113,19.0540541 20.8623396,23.1660232 18.5841509,23.1660232 L18.5841509,23.1660232 Z M14.545125,25.2463506 C15.1318345,25.1237523 15.7406767,25.0309573 16.365783,24.97134 C16.2892112,24.7728437 16.2475472,24.554939 16.2475472,24.3243243 L16.2475472,23.8168991 C11.0658308,24.29818 6.97365253,26.8845409 6.37539623,30.1737452 L7.54369811,30.3474903 C7.91985428,28.2756223 10.2098531,26.4705846 13.3439088,25.5475417 C13.7130675,26.24299 14.2674953,26.8504795 14.904,27.3359073 C15.3713208,27.1042471 15.8386415,26.988417 16.3059623,26.8725869 C15.5604878,26.5492336 14.9636618,25.9679722 14.545125,25.2463506 Z M22.6276733,25.5292624 C25.7762977,26.4362138 28.0790097,28.2278027 28.4563019,30.3474903 L29.6246038,30.1737452 C29.0263475,26.8845409 24.9341692,24.29818 19.7524528,23.8168991 L19.7524528,24.3243243 C19.7524528,24.5546454 19.7108948,24.7722888 19.6345093,24.9705817 C19.2890279,24.9381311 18.9385782,24.9155919 18.5841509,24.9034749 L18.5841509,24.034749 L18.5841509,24.3243243 C18.5841509,24.6718147 18.3504906,24.9034749 18,24.9034749 C17.6495094,24.9034749 17.4158491,24.6718147 17.4158491,24.3243243 L17.4158491,24.034749 L17.4158491,23.7451737 C17.0210896,23.7571548 16.63133,23.7812531 16.2475472,23.8168991 C20.2476434,25.0281726 20.8451292,25.116981 21.4214289,25.2341519 C20.9909567,25.934593 20.3781,26.4981754 19.6940377,26.8146718 C20.1613585,26.9305019 20.6870943,27.1042471 21.096,27.3359073 C21.7278973,26.8539933 22.2384551,26.2517783 22.6276733,25.5292624 Z M11.2822642,13.8996139 C11.0486038,13.8996139 10.9901887,13.957529 10.9901887,13.957529 L10.9901887,14.4787645 C10.9901887,15.6370656 11.2238491,15.6370656 11.2822642,15.6370656 L11.5743396,15.6370656 C11.9248302,15.6370656 12.1584906,15.8687259 12.1584906,16.2162162 L12.1584906,16.7953668 C12.1584906,18.4169884 15.7802264,22.007722 17.4158491,22.007722 L18.5841509,22.007722 C20.2197736,22.007722 23.8415094,18.4169884 23.8415094,16.7953668 L23.8415094,16.2162162 C23.8415094,15.8687259 24.0751698,15.6370656 24.4256604,15.6370656 L24.7177358,15.6370656 C24.7761509,15.6370656 25.0098113,15.6370656 25.0098113,14.4787645 C25.0098113,14.1891892 25.0098113,13.957529 24.9513962,13.8996139 L24.7177358,13.8996139 L24.4256604,13.8996139 C24.0751698,13.8996139 23.8415094,13.6679537 23.8415094,13.3204633 L23.8415094,11.5830116 C23.8415094,9.84555985 22.2643019,6.37065637 18.5841509,6.37065637 L17.4158491,6.37065637 C13.7356981,6.37065637 12.1584906,9.84555985 12.1584906,11.5830116 L12.1584906,13.3204633 C12.1584906,13.6679537 11.9248302,13.8996139 11.5743396,13.8996139 L11.2822642,13.8996139 Z" id="Combined-Shape"></path>
                                <path d="M20.3366038,12.1621622 C18.3504906,12.1621622 16.7148679,11.0617761 15.6049811,10.0772201 C14.4366792,11.1196911 13.3267925,11.6988417 11.5743396,11.8146718 L11.5159245,10.6563707 C13.0931321,10.5984556 13.9693585,10.019305 15.1960755,8.86100386 L15.6049811,8.51351351 L16.0138868,8.91891892 C17.0069434,9.84555985 18.5257358,11.0617761 20.3366038,11.0617761 C21.6801509,11.0617761 22.7900377,10.7142857 23.7246792,9.9034749 L24.4840755,10.7722008 C23.3157736,11.6988417 21.9722264,12.1621622 20.3366038,12.1621622 L20.3366038,12.1621622 Z" id="Shape"></path>
                                <path d="M0.475471698,17.3745174 C0.475471698,24.3243243 4.5645283,30.2895753 10.5228679,33.0694981 C10.581283,32.6640927 10.6396981,32.2586873 10.7565283,31.9111969 C5.38233962,29.2471042 1.64377358,23.7451737 1.64377358,17.3745174 C1.64377358,8.45559846 9.00407547,1.15830116 18,1.15830116 C26.9959245,1.15830116 34.3562264,8.45559846 34.3562264,17.3745174 C34.3562264,23.7451737 30.6176604,29.2471042 25.2434717,31.9111969 C25.3603019,32.3166023 25.418717,32.6640927 25.4771321,33.0694981 C31.4354717,30.2895753 35.5245283,24.3243243 35.5245283,17.3745174 C35.5245283,7.76061776 27.6969057,0 18,0 C8.30309434,0 0.475471698,7.76061776 0.475471698,17.3745174 Z" id="Shape"></path>
                            </g>
                        </g>
                    </g>
                </g>
            </g>
        </g>
    </g>
</svg>