<?xml version="1.0" encoding="UTF-8" standalone="no"?>
<svg width="11px" height="7px" viewBox="0 0 11 7" version="1.1" xmlns="http://www.w3.org/2000/svg" xmlns:xlink="http://www.w3.org/1999/xlink">
    <!-- Generator: Sketch 40.3 (33839) - http://www.bohemiancoding.com/sketch -->
    <title>Combined Shape</title>
    <desc>Created with Sketch.</desc>
    <defs></defs>
    <g id="MAIN" stroke="none" stroke-width="1" fill="none" fill-rule="evenodd">
        <g id="Homepage-1920" transform="translate(-861.000000, -1322.000000)" fill="#90979E">
            <g id="03-How-it-works?" transform="translate(0.000000, 1163.000000)">
                <g id="Group-18" transform="translate(364.000000, 123.000000)">
                    <g id="Group-20">
                        <path d="M505.330357,39.2212302 L505.44246,39.109127 L500.333333,34 L499,35.3333333 L502.887897,39.2212302 L499,43.109127 L500.333333,44.4424604 L505.44246,39.3333333 L505.330357,39.2212302 Z" id="Combined-Shape" transform="translate(502.221230, 39.221230) scale(1, -1) rotate(90.000000) translate(-502.221230, -39.221230) "></path>
                    </g>
                </g>
            </g>
        </g>
    </g>
</svg>