<?xml version="1.0" encoding="UTF-8" standalone="no"?>
<svg width="17px" height="14px" viewBox="0 0 17 14" version="1.1" xmlns="http://www.w3.org/2000/svg" xmlns:xlink="http://www.w3.org/1999/xlink">
    <!-- Generator: Sketch 40.3 (33839) - http://www.bohemiancoding.com/sketch -->
    <title>Combined Shape</title>
    <desc>Created with Sketch.</desc>
    <defs></defs>
    <g id="Main" stroke="none" stroke-width="1" fill="none" fill-rule="evenodd">
        <g id="Homepage-1360" transform="translate(-21.000000, -32.000000)" fill="#FFFFFF">
            <g id="01-Welcome" transform="translate(1.000000, 0.000000)">
                <g id="HEADER_dark" transform="translate(0.000000, 15.000000)">
                    <path d="M20,23 L37,23 L37,25 L20,25 L20,23 Z M20,17 L37,17 L37,19 L20,19 L20,17 Z M20,29 L37,29 L37,31 L20,31 L20,29 Z" id="Combined-Shape"></path>
                </g>
            </g>
        </g>
    </g>
</svg>