<?xml version="1.0" standalone="no"?>
<!DOCTYPE svg PUBLIC "-//W3C//DTD SVG 1.1//EN" "http://www.w3.org/Graphics/SVG/1.1/DTD/svg11.dtd">
<svg width="100%" height="100%" viewBox="0 0 12 12" version="1.1" xmlns="http://www.w3.org/2000/svg" xmlns:xlink="http://www.w3.org/1999/xlink" xml:space="preserve" style="fill-rule:evenodd;clip-rule:evenodd;stroke-linejoin:round;stroke-miterlimit:1.41421;">
    <clipPath id="_clip1">
        <path d="M5,5L0,5L0,7L5,7L5,12L7,12L7,7L12,7L12,5L7,5L7,0L5,0L5,5Z"/>
    </clipPath>
    <g clip-path="url(#_clip1)">
        <rect x="-5" y="-5" width="22" height="22" style="fill:rgb(138,145,153);fill-rule:nonzero;"/>
    </g>
</svg>
