<?xml version="1.0" encoding="UTF-8" standalone="no"?>
<svg width="7px" height="6px" viewBox="0 0 7 6" version="1.1" xmlns="http://www.w3.org/2000/svg" xmlns:xlink="http://www.w3.org/1999/xlink">
    <!-- Generator: Sketch 41.1 (35376) - http://www.bohemiancoding.com/sketch -->
    <title>Triangle 1</title>
    <desc>Created with Sketch.</desc>
    <defs></defs>
    <g id="Main" stroke="none" stroke-width="1" fill="none" fill-rule="evenodd">
        <g id="Homepage-1920" transform="translate(-1094.000000, -60.000000)" fill="#73D0FF">
            <g id="01-Welcome">
                <g id="HEADER_dark" transform="translate(0.000000, 30.000000)">
                    <g id="Menu" transform="translate(602.000000, 22.000000)">
                        <polygon id="Triangle-1" transform="translate(495.500000, 11.000000) scale(1, -1) translate(-495.500000, -11.000000) " points="495.5 8 499 14 492 14"></polygon>
                    </g>
                </g>
            </g>
        </g>
    </g>
</svg>