<?xml version="1.0" encoding="UTF-8" standalone="no"?>
<svg width="80px" height="80px" viewBox="0 0 80 80" version="1.1" xmlns="http://www.w3.org/2000/svg" xmlns:xlink="http://www.w3.org/1999/xlink" xmlns:sketch="http://www.bohemiancoding.com/sketch/ns">
    <!-- Generator: Sketch 3.3.2 (12043) - http://www.bohemiancoding.com/sketch -->
    <title>Group</title>
    <desc>Created with Sketch.</desc>
    <defs></defs>
    <g id="Home" stroke="none" stroke-width="1" fill="none" fill-rule="evenodd" sketch:type="MSPage">
        <g id="Landscape---FULL" sketch:type="MSArtboardGroup" transform="translate(-30.000000, -3475.000000)">
            <g id="Features" sketch:type="MSLayerGroup" transform="translate(0.000000, 3378.000000)">
                <g id="Group" transform="translate(30.000000, 97.000000)" sketch:type="MSShapeGroup">
                    <path d="M40.0300433,0.941740049 C18.5015127,0.941740049 0.9866421,18.4495949 0.9866421,39.9695667 C0.9866421,61.4895386 18.5015127,78.9973934 40.0300433,78.9973934 C61.5580101,78.9973934 79.0723169,61.4895386 79.0723169,39.9695667 C79.0723169,18.4495949 61.5580101,0.941740049 40.0300433,0.941740049 L40.0300433,0.941740049 Z M40.0300433,79.8427615 C18.0352538,79.8427615 0.140948871,61.9556182 0.140948871,39.9695667 C0.140948871,17.9835153 18.0352538,0.096371962 40.0300433,0.096371962 C62.024269,0.096371962 79.9180101,17.9835153 79.9180101,39.9695667 C79.9180101,61.9556182 62.024269,79.8427615 40.0300433,79.8427615 L40.0300433,79.8427615 Z" id="Fill-15" fill="#AC63ED"></path>
                    <path d="M62.4975753,52.3415287 C58.2550143,52.3415287 54.8037402,48.8915815 54.8037402,44.6509334 C54.8037402,40.4100035 58.2550143,36.9600564 62.4975753,36.9600564 C66.7395725,36.9600564 70.1908466,40.4100035 70.1908466,44.6509334 C70.1908466,48.8915815 66.7395725,52.3415287 62.4975753,52.3415287 L62.4975753,52.3415287 Z M59.3459585,60.6715041 L19.4393865,60.6715041 C18.1680276,60.6715041 17.1337448,59.6376189 17.1337448,58.3667489 L17.1337448,28.6303628 L61.6518821,28.6303628 L61.6518821,35.3093343 C56.872024,35.7382177 53.1123538,39.7630151 53.1123538,44.6509334 C53.1123538,49.5385699 56.872024,53.5633674 61.6518821,53.9925326 L61.6518821,58.3667489 C61.6518821,59.6376189 60.6175993,60.6715041 59.3459585,60.6715041 L59.3459585,60.6715041 Z M19.4393865,20.2617823 L22.1346108,20.2617823 L22.1346108,22.6643184 C22.1346108,23.1312434 22.5131994,23.5096865 22.980304,23.5096865 L26.8132676,23.5096865 C27.2800903,23.5096865 27.6589608,23.1312434 27.6589608,22.6643184 L27.6589608,20.2617823 L51.1263842,20.2617823 L51.1263842,22.6643184 C51.1263842,23.1312434 51.5049728,23.5096865 51.9720774,23.5096865 L55.805041,23.5096865 C56.2721456,23.5096865 56.6507342,23.1312434 56.6507342,22.6643184 L56.6507342,20.2617823 L59.3462404,20.2617823 C60.6175993,20.2617823 61.6518821,21.2956675 61.6518821,22.5665375 L61.6518821,26.9396266 L17.1337448,26.9396266 L17.1337448,22.5665375 C17.1337448,21.2956675 18.1680276,20.2617823 19.4393865,20.2617823 L19.4393865,20.2617823 Z M23.8259972,17.0133145 L25.9675744,17.0133145 L25.9675744,21.8189503 L23.8259972,21.8189503 L23.8259972,17.0133145 Z M52.8177706,17.0133145 L54.9593478,17.0133145 L54.9593478,19.4000704 C54.9593478,19.4054244 54.9579383,19.4107784 54.9579383,19.4164142 C54.9579383,19.42205 54.9593478,19.427404 54.9593478,19.432758 L54.9593478,21.8189503 L52.8177706,21.8189503 L52.8177706,17.0133145 L52.8177706,17.0133145 Z M71.8822331,44.6509334 C71.8822331,39.7630151 68.1228448,35.7382177 63.3432685,35.3093343 L63.3432685,22.5665375 C63.3432685,20.3632265 61.550117,18.5710461 59.3462404,18.5710461 L56.6507342,18.5710461 L56.6507342,16.1679465 C56.6507342,15.7010215 56.2721456,15.3225784 55.805041,15.3225784 L51.9720774,15.3225784 C51.5049728,15.3225784 51.1263842,15.7010215 51.1263842,16.1679465 L51.1263842,18.5710461 L27.6589608,18.5710461 L27.6589608,16.1679465 C27.6589608,15.7010215 27.2800903,15.3225784 26.8132676,15.3225784 L22.980304,15.3225784 C22.5131994,15.3225784 22.1346108,15.7010215 22.1346108,16.1679465 L22.1346108,18.5710461 L19.4393865,18.5710461 C17.2355099,18.5710461 15.4423584,20.3635083 15.4423584,22.5665375 L15.4423584,27.7810497 C15.4423584,27.7824586 15.4417946,27.7835858 15.4417946,27.7849947 C15.4417946,27.7864037 15.4423584,27.7878126 15.4423584,27.7892216 L15.4423584,58.3667489 C15.4423584,60.5697781 17.2355099,62.3622402 19.4393865,62.3622402 L59.3459585,62.3622402 C61.550117,62.3622402 63.3432685,60.5697781 63.3432685,58.3667489 L63.3432685,53.9925326 C68.1228448,53.5633674 71.8822331,49.5385699 71.8822331,44.6509334 L71.8822331,44.6509334 Z" id="Fill-207" fill="#23252E"></path>
                    <path d="M63.3432685,42.9883762 L63.3432685,38.961888 C63.3432685,38.4952448 62.964398,38.1165199 62.4975753,38.1165199 C62.0304708,38.1165199 61.6518821,38.4952448 61.6518821,38.961888 L61.6518821,42.9880944 C61.3006375,43.1675942 61.0139475,43.454174 60.8346605,43.8055653 L58.4523427,43.8055653 C57.9852381,43.8055653 57.6066495,44.1840085 57.6066495,44.6509334 C57.6066495,45.1178584 57.9852381,45.4963015 58.4523427,45.4963015 L60.8346605,45.4963015 C61.1436205,46.1015851 61.7719705,46.517788 62.4970115,46.517788 C63.526784,46.517788 64.364866,45.68031 64.364866,44.6509334 C64.364866,43.9258894 63.948503,43.2977809 63.3432685,42.9883762" id="Fill-208" fill="#23252E"></path>
                    <path d="M23.8637715,33.1406833 L22.2180525,33.1406833 C21.7512298,33.1406833 21.3723593,33.5191265 21.3723593,33.9860514 L21.3723593,35.6308559 C21.3723593,36.0974991 21.7512298,36.476224 22.2180525,36.476224 L23.8637715,36.476224 C24.3308761,36.476224 24.7094648,36.0974991 24.7094648,35.6308559 L24.7094648,33.9860514 C24.7094648,33.5191265 24.3308761,33.1406833 23.8637715,33.1406833" id="Fill-209" fill="#23252E"></path>
                    <path d="M29.3142644,33.1406833 L27.6685454,33.1406833 C27.2017227,33.1406833 26.8228521,33.5191265 26.8228521,33.9860514 L26.8228521,35.6308559 C26.8228521,36.0974991 27.2017227,36.476224 27.6685454,36.476224 L29.3142644,36.476224 C29.781369,36.476224 30.1599576,36.0974991 30.1599576,35.6308559 L30.1599576,33.9860514 C30.1599576,33.5191265 29.781369,33.1406833 29.3142644,33.1406833" id="Fill-210" fill="#23252E"></path>
                    <path d="M34.7650392,33.1406833 L33.1193201,33.1406833 C32.6522156,33.1406833 32.2736269,33.5191265 32.2736269,33.9860514 L32.2736269,35.6308559 C32.2736269,36.0974991 32.6522156,36.476224 33.1193201,36.476224 L34.7650392,36.476224 C35.2318618,36.476224 35.6107324,36.0974991 35.6107324,35.6308559 L35.6107324,33.9860514 C35.6107324,33.5191265 35.2318618,33.1406833 34.7650392,33.1406833" id="Fill-211" fill="#23252E"></path>
                    <path d="M40.215532,33.1406833 L38.569813,33.1406833 C38.1029903,33.1406833 37.7241198,33.5191265 37.7241198,33.9860514 L37.7241198,35.6308559 C37.7241198,36.0974991 38.1029903,36.476224 38.569813,36.476224 L40.215532,36.476224 C40.6823547,36.476224 41.0612252,36.0974991 41.0612252,35.6308559 L41.0612252,33.9860514 C41.0612252,33.5191265 40.6823547,33.1406833 40.215532,33.1406833" id="Fill-212" fill="#23252E"></path>
                    <path d="M45.665743,33.1406833 L44.020024,33.1406833 C43.5532013,33.1406833 43.1743307,33.5191265 43.1743307,33.9860514 L43.1743307,35.6308559 C43.1743307,36.0974991 43.5532013,36.476224 44.020024,36.476224 L45.665743,36.476224 C46.1328475,36.476224 46.5114362,36.0974991 46.5114362,35.6308559 L46.5114362,33.9860514 C46.5114362,33.5191265 46.1328475,33.1406833 45.665743,33.1406833" id="Fill-213" fill="#23252E"></path>
                    <path d="M51.1165177,33.1406833 L49.4707987,33.1406833 C49.0036942,33.1406833 48.6251055,33.5191265 48.6251055,33.9860514 L48.6251055,35.6308559 C48.6251055,36.0974991 49.0036942,36.476224 49.4707987,36.476224 L51.1165177,36.476224 C51.5833404,36.476224 51.962211,36.0974991 51.962211,35.6308559 L51.962211,33.9860514 C51.962211,33.5191265 51.5833404,33.1406833 51.1165177,33.1406833" id="Fill-214" fill="#23252E"></path>
                    <path d="M54.9212916,36.476224 L56.5670106,36.476224 C57.0338333,36.476224 57.4127038,36.0974991 57.4127038,35.6308559 L57.4127038,33.9860514 C57.4127038,33.5191265 57.0338333,33.1406833 56.5670106,33.1406833 L54.9212916,33.1406833 C54.454187,33.1406833 54.0755983,33.5191265 54.0755983,33.9860514 L54.0755983,35.6308559 C54.0755983,36.0974991 54.454187,36.476224 54.9212916,36.476224" id="Fill-215" fill="#23252E"></path>
                    <path d="M23.8637715,39.7021486 L22.2180525,39.7021486 C21.7512298,39.7021486 21.3723593,40.0808735 21.3723593,40.5475167 L21.3723593,42.192603 C21.3723593,42.659528 21.7512298,43.0379711 22.2180525,43.0379711 L23.8637715,43.0379711 C24.3308761,43.0379711 24.7094648,42.659528 24.7094648,42.192603 L24.7094648,40.5475167 C24.7094648,40.0808735 24.3308761,39.7021486 23.8637715,39.7021486" id="Fill-216" fill="#23252E"></path>
                    <path d="M29.3142644,39.7021486 L27.6685454,39.7021486 C27.2017227,39.7021486 26.8228521,40.0808735 26.8228521,40.5475167 L26.8228521,42.192603 C26.8228521,42.659528 27.2017227,43.0379711 27.6685454,43.0379711 L29.3142644,43.0379711 C29.781369,43.0379711 30.1599576,42.659528 30.1599576,42.192603 L30.1599576,40.5475167 C30.1599576,40.0808735 29.781369,39.7021486 29.3142644,39.7021486" id="Fill-217" fill="#23252E"></path>
                    <path d="M34.7650392,39.7021486 L33.1193201,39.7021486 C32.6522156,39.7021486 32.2736269,40.0808735 32.2736269,40.5475167 L32.2736269,42.192603 C32.2736269,42.659528 32.6522156,43.0379711 33.1193201,43.0379711 L34.7650392,43.0379711 C35.2318618,43.0379711 35.6107324,42.659528 35.6107324,42.192603 L35.6107324,40.5475167 C35.6107324,40.0808735 35.2318618,39.7021486 34.7650392,39.7021486" id="Fill-218" fill="#23252E"></path>
                    <path d="M40.215532,39.7021486 L38.569813,39.7021486 C38.1029903,39.7021486 37.7241198,40.0808735 37.7241198,40.5475167 L37.7241198,42.192603 C37.7241198,42.659528 38.1029903,43.0379711 38.569813,43.0379711 L40.215532,43.0379711 C40.6823547,43.0379711 41.0612252,42.659528 41.0612252,42.192603 L41.0612252,40.5475167 C41.0612252,40.0808735 40.6823547,39.7021486 40.215532,39.7021486" id="Fill-219" fill="#23252E"></path>
                    <path d="M45.665743,39.7021486 L44.020024,39.7021486 C43.5532013,39.7021486 43.1743307,40.0808735 43.1743307,40.5475167 L43.1743307,42.192603 C43.1743307,42.659528 43.5532013,43.0379711 44.020024,43.0379711 L45.665743,43.0379711 C46.1328475,43.0379711 46.5114362,42.659528 46.5114362,42.192603 L46.5114362,40.5475167 C46.5114362,40.0808735 46.1328475,39.7021486 45.665743,39.7021486" id="Fill-220" fill="#23252E"></path>
                    <path d="M51.1165177,39.7021486 L49.4707987,39.7021486 C49.0036942,39.7021486 48.6251055,40.0808735 48.6251055,40.5475167 L48.6251055,42.192603 C48.6251055,42.659528 49.0036942,43.0379711 49.4707987,43.0379711 L51.1165177,43.0379711 C51.5833404,43.0379711 51.962211,42.659528 51.962211,42.192603 L51.962211,40.5475167 C51.962211,40.0808735 51.5833404,39.7021486 51.1165177,39.7021486" id="Fill-221" fill="#23252E"></path>
                    <path d="M23.8637715,46.2638957 L22.2180525,46.2638957 C21.7512298,46.2638957 21.3723593,46.6423389 21.3723593,47.1092638 L21.3723593,48.7540683 C21.3723593,49.2209933 21.7512298,49.5994364 22.2180525,49.5994364 L23.8637715,49.5994364 C24.3308761,49.5994364 24.7094648,49.2209933 24.7094648,48.7540683 L24.7094648,47.1092638 C24.7094648,46.6423389 24.3308761,46.2638957 23.8637715,46.2638957" id="Fill-222" fill="#23252E"></path>
                    <path d="M29.3142644,46.2638957 L27.6685454,46.2638957 C27.2017227,46.2638957 26.8228521,46.6423389 26.8228521,47.1092638 L26.8228521,48.7540683 C26.8228521,49.2209933 27.2017227,49.5994364 27.6685454,49.5994364 L29.3142644,49.5994364 C29.781369,49.5994364 30.1599576,49.2209933 30.1599576,48.7540683 L30.1599576,47.1092638 C30.1599576,46.6423389 29.781369,46.2638957 29.3142644,46.2638957" id="Fill-223" fill="#23252E"></path>
                    <path d="M34.7650392,46.2638957 L33.1193201,46.2638957 C32.6522156,46.2638957 32.2736269,46.6423389 32.2736269,47.1092638 L32.2736269,48.7540683 C32.2736269,49.2209933 32.6522156,49.5994364 33.1193201,49.5994364 L34.7650392,49.5994364 C35.2318618,49.5994364 35.6107324,49.2209933 35.6107324,48.7540683 L35.6107324,47.1092638 C35.6107324,46.6423389 35.2318618,46.2638957 34.7650392,46.2638957" id="Fill-224" fill="#23252E"></path>
                    <path d="M40.215532,46.2638957 L38.569813,46.2638957 C38.1029903,46.2638957 37.7241198,46.6423389 37.7241198,47.1092638 L37.7241198,48.7540683 C37.7241198,49.2209933 38.1029903,49.5994364 38.569813,49.5994364 L40.215532,49.5994364 C40.6823547,49.5994364 41.0612252,49.2209933 41.0612252,48.7540683 L41.0612252,47.1092638 C41.0612252,46.6423389 40.6823547,46.2638957 40.215532,46.2638957" id="Fill-225" fill="#23252E"></path>
                    <path d="M45.665743,46.2638957 L44.020024,46.2638957 C43.5532013,46.2638957 43.1743307,46.6423389 43.1743307,47.1092638 L43.1743307,48.7540683 C43.1743307,49.2209933 43.5532013,49.5994364 44.020024,49.5994364 L45.665743,49.5994364 C46.1328475,49.5994364 46.5114362,49.2209933 46.5114362,48.7540683 L46.5114362,47.1092638 C46.5114362,46.6423389 46.1328475,46.2638957 45.665743,46.2638957" id="Fill-226" fill="#23252E"></path>
                    <path d="M51.1165177,46.2638957 L49.4707987,46.2638957 C49.0036942,46.2638957 48.6251055,46.6423389 48.6251055,47.1092638 L48.6251055,48.7540683 C48.6251055,49.2209933 49.0036942,49.5994364 49.4707987,49.5994364 L51.1165177,49.5994364 C51.5833404,49.5994364 51.962211,49.2209933 51.962211,48.7540683 L51.962211,47.1092638 C51.962211,46.6423389 51.5833404,46.2638957 51.1165177,46.2638957" id="Fill-227" fill="#23252E"></path>
                    <path d="M23.8637715,52.8256428 L22.2180525,52.8256428 C21.7512298,52.8256428 21.3723593,53.2040859 21.3723593,53.6710109 L21.3723593,55.3158154 C21.3723593,55.7827404 21.7512298,56.1611835 22.2180525,56.1611835 L23.8637715,56.1611835 C24.3308761,56.1611835 24.7094648,55.7827404 24.7094648,55.3158154 L24.7094648,53.6710109 C24.7094648,53.2040859 24.3308761,52.8256428 23.8637715,52.8256428" id="Fill-228" fill="#23252E"></path>
                    <path d="M29.3142644,52.8256428 L27.6685454,52.8256428 C27.2017227,52.8256428 26.8228521,53.2040859 26.8228521,53.6710109 L26.8228521,55.3158154 C26.8228521,55.7827404 27.2017227,56.1611835 27.6685454,56.1611835 L29.3142644,56.1611835 C29.781369,56.1611835 30.1599576,55.7827404 30.1599576,55.3158154 L30.1599576,53.6710109 C30.1599576,53.2040859 29.781369,52.8256428 29.3142644,52.8256428" id="Fill-229" fill="#23252E"></path>
                    <path d="M34.7650392,52.8256428 L33.1193201,52.8256428 C32.6522156,52.8256428 32.2736269,53.2040859 32.2736269,53.6710109 L32.2736269,55.3158154 C32.2736269,55.7827404 32.6522156,56.1611835 33.1193201,56.1611835 L34.7650392,56.1611835 C35.2318618,56.1611835 35.6107324,55.7827404 35.6107324,55.3158154 L35.6107324,53.6710109 C35.6107324,53.2040859 35.2318618,52.8256428 34.7650392,52.8256428" id="Fill-230" fill="#23252E"></path>
                    <path d="M40.215532,52.8256428 L38.569813,52.8256428 C38.1029903,52.8256428 37.7241198,53.2040859 37.7241198,53.6710109 L37.7241198,55.3158154 C37.7241198,55.7827404 38.1029903,56.1611835 38.569813,56.1611835 L40.215532,56.1611835 C40.6823547,56.1611835 41.0612252,55.7827404 41.0612252,55.3158154 L41.0612252,53.6710109 C41.0612252,53.2040859 40.6823547,52.8256428 40.215532,52.8256428" id="Fill-231" fill="#23252E"></path>
                    <path d="M45.665743,52.8256428 L44.020024,52.8256428 C43.5532013,52.8256428 43.1743307,53.2040859 43.1743307,53.6710109 L43.1743307,55.3158154 C43.1743307,55.7827404 43.5532013,56.1611835 44.020024,56.1611835 L45.665743,56.1611835 C46.1328475,56.1611835 46.5114362,55.7827404 46.5114362,55.3158154 L46.5114362,53.6710109 C46.5114362,53.2040859 46.1328475,52.8256428 45.665743,52.8256428" id="Fill-232" fill="#23252E"></path>
                    <path d="M51.1165177,52.8256428 L49.4707987,52.8256428 C49.0036942,52.8256428 48.6251055,53.2040859 48.6251055,53.6710109 L48.6251055,55.3158154 C48.6251055,55.7827404 49.0036942,56.1611835 49.4707987,56.1611835 L51.1165177,56.1611835 C51.5833404,56.1611835 51.962211,55.7827404 51.962211,55.3158154 L51.962211,53.6710109 C51.962211,53.2040859 51.5833404,52.8256428 51.1165177,52.8256428" id="Fill-233" fill="#23252E"></path>
                    <path d="M56.5670106,52.8256428 L54.9212916,52.8256428 C54.454187,52.8256428 54.0755983,53.2040859 54.0755983,53.6710109 L54.0755983,55.3158154 C54.0755983,55.7827404 54.454187,56.1611835 54.9212916,56.1611835 L56.5670106,56.1611835 C57.0338333,56.1611835 57.4127038,55.7827404 57.4127038,55.3158154 L57.4127038,53.6710109 C57.4127038,53.2040859 57.0338333,52.8256428 56.5670106,52.8256428" id="Fill-234" fill="#23252E"></path>
                </g>
            </g>
        </g>
    </g>
</svg>