<?xml version="1.0" encoding="UTF-8" standalone="no"?>
<svg width="37px" height="37px" viewBox="0 0 37 37" version="1.1" xmlns="http://www.w3.org/2000/svg" xmlns:xlink="http://www.w3.org/1999/xlink" xmlns:sketch="http://www.bohemiancoding.com/sketch/ns">
    <!-- Generator: Sketch 3.3.2 (12043) - http://www.bohemiancoding.com/sketch -->
    <title>Fill 45</title>
    <desc>Created with Sketch.</desc>
    <defs>
        <path d="M602.176,156.464 L602.176,154.217 C601.959,154.56 601.859,154.94 601.859,155.295 C601.859,155.755 601.965,156.134 602.176,156.464 L602.176,156.464 Z M604.044,141 C594.078,141.002 586.001,149.078 586,159.046 C586.001,169.013 594.078,177.089 604.044,177.089 C614.011,177.089 622.088,169.013 622.089,159.046 C622.088,149.078 614.011,141.002 604.044,141 L604.044,141 Z M605.911,166.033 L605.911,167.629 C605.911,167.982 605.623,168.268 605.269,168.268 C604.913,168.268 604.626,167.982 604.626,167.629 L604.626,166.397 C604.264,166.458 603.877,166.492 603.462,166.497 L603.462,167.629 C603.462,167.982 603.173,168.268 602.819,168.268 C602.464,168.268 602.176,167.982 602.176,167.629 L602.176,166.404 C601.171,166.25 600.23,165.924 599.672,165.557 L600.146,163.992 C600.688,164.327 601.396,164.625 602.176,164.792 L602.176,158.884 C600.785,158.094 599.973,157.029 599.973,155.51 C599.973,154.011 600.798,152.772 602.176,152.109 L602.176,150.459 C602.176,150.103 602.464,149.817 602.819,149.817 C603.173,149.817 603.462,150.103 603.462,150.459 L603.462,151.696 C603.828,151.626 604.216,151.589 604.626,151.589 L604.626,150.459 C604.626,150.103 604.913,149.817 605.269,149.817 C605.623,149.817 605.911,150.103 605.911,150.459 L605.911,151.678 C606.75,151.805 607.395,152.047 607.835,152.297 L607.32,153.817 C607.028,153.658 606.547,153.432 605.911,153.284 L605.911,158.607 C607.57,159.469 608.415,160.576 608.415,162.322 C608.415,163.894 607.591,165.324 605.911,166.033 L605.911,166.033 Z M603.462,153.288 L603.462,157.52 C603.793,157.694 604.184,157.864 604.626,158.04 L604.626,153.134 C604.611,153.134 604.595,153.132 604.579,153.132 C604.149,153.132 603.779,153.19 603.462,153.288 L603.462,153.288 Z M603.462,159.48 L603.462,164.935 C603.47,164.935 603.479,164.936 603.487,164.936 C603.904,164.936 604.286,164.884 604.626,164.792 L604.626,159.964 C604.373,159.841 604.1,159.72 603.786,159.601 C603.675,159.561 603.568,159.521 603.462,159.48 L603.462,159.48 Z M605.911,164.057 C606.298,163.642 606.508,163.097 606.508,162.47 C606.508,161.816 606.321,161.295 605.911,160.849 L605.911,164.057 L605.911,164.057 Z" id="path-1"></path>
    </defs>
    <g id="Home" stroke="none" stroke-width="1" fill="none" fill-rule="evenodd" sketch:type="MSPage">
        <g id="Landscape---FULL" sketch:type="MSArtboardGroup" transform="translate(-586.000000, -3966.000000)">
            <g id="Stats" sketch:type="MSLayerGroup" transform="translate(0.000000, 3825.000000)">
                <g id="Fill-45">
                    <use fill="none" sketch:type="MSShapeGroup" xlink:href="#path-1"></use>
                    <use fill="#0082D5" fill-rule="evenodd" xlink:href="#path-1"></use>
                </g>
            </g>
        </g>
    </g>
</svg>