<?xml version="1.0" encoding="UTF-8" standalone="no"?>
<svg width="74px" height="60px" viewBox="0 0 74 60" version="1.1" xmlns="http://www.w3.org/2000/svg" xmlns:xlink="http://www.w3.org/1999/xlink">
    <!-- Generator: Sketch 40.3 (33839) - http://www.bohemiancoding.com/sketch -->
    <title>Icon</title>
    <desc>Created with Sketch.</desc>
    <defs></defs>
    <g id="MAIN" stroke="none" stroke-width="1" fill="none" fill-rule="evenodd">
        <g id="Homepage-1920" transform="translate(-1340.000000, -2145.000000)">
            <g id="04-Request-for-Critiques" transform="translate(0.000000, 1933.000000)">
                <g id="3" transform="translate(1175.000000, 212.000000)">
                    <g id="Icon" transform="translate(165.000000, 0.000000)">
                        <path d="M51.2732928,37.9035546 L53.5625,44.7025 C53.735,45.205 54.2125,45.5475 54.75,45.5475 C61.0175,45.5475 71,50.6475 71,56.685 C71,57.3675 71.5625,57.9225 72.25,57.9225 L72.25,57.9225 C72.9375,57.9225 73.5,57.3675 73.5,56.68 C73.5,49.2325 63.02,43.55 55.66,43.0975 L53.7813483,37.5164268 C63.5100078,35.5896839 67.3206849,29.6102772 68.3675,27.5375 C68.5575,27.165 68.5375,26.7125 68.3225,26.3525 C67.1375,24.3925 63.9575,18.8575 63.465,16.8025 C61.0725,6.76 55.1625,1 47.25,1 C46.5625,1 46,1.555 46,2.2375 C46,2.92 46.5625,3.475 47.25,3.475 C56.7,3.475 60.0425,13.195 61.035,17.3725 C61.61,19.79 64.6975,25.13 65.815,27.015 C64.2825,29.6375 59.4325,35.6475 47.25,35.6475 C46.5625,35.6475 46,36.205 46,36.885 C46,37.565 46.5625,38.1225 47.25,38.1225 L47.25,38.1225 C48.6791173,38.1225 50.0185279,38.0452612 51.2732928,37.9035546 Z" id="Shape" fill="#44A1EB"></path>
                        <path d="M19.7727821,39.5687615 C16.4085588,36.644165 14.1460869,32.0771028 13.7975,27.7425 C11.1875,27.3625 10,25.73 10,24.1125 L10,19.1625 C10,17.615 11.5125,16.5 12.5,15.9325 L12.5,11.7375 C12.5,7.295 13.9775,3.1825 24.5875,3.0775 C28.165,0.5425 31.6075,0 33.895,0 C38.3225,0 42.125,1.9875 43.5825,5.06 C44.665,7.3525 44.275,9.8575 42.495,12.1675 L42.495,15.9325 C43.485,16.4975 44.995,17.6125 44.995,19.1625 L44.995,24.1125 C44.995,25.725 43.805,27.3625 41.1925,27.7425 C40.852421,32.0461543 38.6220665,36.5789603 35.2984786,39.5058672 L38.365,43.9175 L41.455,43.9175 C49.4275,43.9175 55,49.01 55,56.2925 L55,58.7675 C55,59.4425 54.4375,60 53.75,60 L53.75,60 C53.0625,60 52.5,59.4425 52.5,58.7625 L52.5,56.2875 C52.5,50.4575 47.96,46.3875 41.455,46.3875 L37.705,46.3875 C37.2925,46.3875 36.9075,46.1875 36.675,45.85 L33.2950986,40.9852743 C31.5451557,42.0475442 29.5855653,42.675 27.5,42.675 C25.4470496,42.675 23.5161647,42.0670156 21.7869354,41.0347911 L18.5375,45.835 C18.305,46.1775 17.915,46.3825 17.4975,46.3825 L13.7475,46.3825 C7.125,46.3825 2.4975,50.455 2.4975,56.2825 L2.4975,58.7575 C2.5,59.4425 1.94,60 1.25,60 L1.25,60 C0.56,60 0,59.4425 0,58.7625 L0,56.2875 C0,49.12 5.7825,43.9125 13.75,43.9125 L16.8325,43.9125 L19.7727821,39.5687615 Z M21.9879032,38.1851344 C18.5567095,35.5485504 16.2475,30.7765526 16.2475,26.5925 C16.2475,25.9125 15.6875,25.355 14.9975,25.355 C13.845,25.355 12.4975,25.03 12.4975,24.1175 L12.4975,19.175 C12.5475,18.9075 13.3725,18.22 14.2625,17.8225 C14.71,17.62 15,17.1775 15,16.6925 L15,11.7425 C15,8.985 15,5.555 25,5.555 C25.2725,5.555 25.535,5.465 25.75,5.3075 C28.8975,2.965 31.9175,2.475 33.8975,2.475 L33.8975,2.475 C37.305,2.475 40.29,3.935 41.3175,6.1175 C42.03,7.625 41.6775,9.3 40.2875,10.9475 C40.1,11.1725 39.9975,11.45 39.9975,11.74 L39.9975,16.69 C39.9975,17.1775 40.2875,17.62 40.7375,17.82 C41.5375,18.1775 42.445,18.875 42.4975,19.1675 L42.4975,24.1175 C42.4975,25.0325 41.15,25.355 39.9975,25.355 C39.3075,25.355 38.7475,25.9125 38.7475,26.5925 C38.7475,32.7575 33.73,40.205 27.4975,40.205 C25.6551911,40.205 23.919046,39.5544734 22.387278,38.4787101 C22.318686,38.4026496 22.2394377,38.3339742 22.15,38.275 C22.0975541,38.2406468 22.0433667,38.2107204 21.9879032,38.1851344 Z" id="Shape" fill="#216EBE"></path>
                    </g>
                </g>
            </g>
        </g>
    </g>
</svg>