<?xml version="1.0" encoding="UTF-8" standalone="no"?>
<svg width="41px" height="40px" viewBox="0 0 41 40" version="1.1" xmlns="http://www.w3.org/2000/svg" xmlns:xlink="http://www.w3.org/1999/xlink">
    <!-- Generator: Sketch 40.3 (33839) - http://www.bohemiancoding.com/sketch -->
    <title>Google +_Color</title>
    <desc>Created with Sketch.</desc>
    <defs></defs>
    <g id="Main" stroke="none" stroke-width="1" fill="none" fill-rule="evenodd">
        <g id="Homepage-1920" transform="translate(-940.000000, -4876.000000)">
            <g id="Bottom" transform="translate(0.000000, 4054.000000)">
                <g id="Footer" transform="translate(0.000000, 530.000000)">
                    <g id="Group-3" transform="translate(880.000000, 292.000000)">
                        <g id="Google-+" transform="translate(60.000000, 0.000000)">
                            <path d="M0,20 C0,8.95430446 9.0407462,0 20.1930731,0 C31.3453999,0 40.3861461,8.95430446 40.3861461,20 C40.3861461,31.0456955 31.3453999,40 20.1930731,40 C9.0407462,40 0,31.0456955 0,20 Z" id="back" fill="#DC4E41"></path>
                            <path d="M18.4977645,19.4285714 L18.4977645,21.6 L22.1364382,21.6 C21.9897914,22.5319048 21.0365872,24.332381 18.4977645,24.332381 C16.307228,24.332381 14.5199702,22.5409524 14.5199702,20.3333333 C14.5199702,18.1257143 16.307228,16.3342857 18.4977645,16.3342857 C19.7442623,16.3342857 20.5783159,16.8590476 21.054918,17.3114286 L22.7963487,15.6557143 C21.6781669,14.6242857 20.2300298,14 18.4977645,14 C14.9507452,14 12.0819672,16.8319048 12.0819672,20.3333333 C12.0819672,23.8347619 14.9507452,26.6666667 18.4977645,26.6666667 C22.2005961,26.6666667 24.65693,24.0971429 24.65693,20.4780952 C24.65693,20.0619048 24.6111028,19.7452381 24.5561103,19.4285714 L18.4977645,19.4285714 L18.4977645,19.4285714 Z" id="Shape" fill="#FFFFFF"></path>
                            <polyline id="Shape-Copy" fill="#FFFFFF" points="31.2459016 19.4285714 29.4128167 19.4285714 29.4128167 17.6190476 27.5797317 17.6190476 27.5797317 19.4285714 25.7466468 19.4285714 25.7466468 21.2380952 27.5797317 21.2380952 27.5797317 23.047619 29.4128167 23.047619 29.4128167 21.2380952 31.2459016 21.2380952"></polyline>
                        </g>
                    </g>
                </g>
            </g>
        </g>
    </g>
</svg>