<?xml version="1.0" encoding="UTF-8" standalone="no"?>
<svg width="118px" height="118px" viewBox="0 0 118 118" version="1.1" xmlns="http://www.w3.org/2000/svg" xmlns:xlink="http://www.w3.org/1999/xlink">
    <!-- Generator: Sketch 3.8.3 (29802) - http://www.bohemiancoding.com/sketch -->
    <title>Group 2</title>
    <desc>Created with Sketch.</desc>
    <defs>
        <linearGradient x1="100%" y1="2.22044605e-14%" x2="100%" y2="123.975857%" id="linearGradient-1">
            <stop stop-color="#43B6FF" offset="0%"></stop>
            <stop stop-color="#4483D0" offset="100%"></stop>
        </linearGradient>
    </defs>
    <g id="Page-1" stroke="none" stroke-width="1" fill="none" fill-rule="evenodd">
        <g id="2-Custom-essay" transform="translate(-474.000000, -1592.000000)">
            <g id="02-How-it-works" transform="translate(-323.000000, 1407.000000)">
                <g id="2" transform="translate(725.000000, 167.000000)">
                    <g id="Group-2" transform="translate(54.000000, 0.000000)">
                        <rect id="Rectangle-129" fill="#FFFFFF" transform="translate(77.000000, 77.000000) rotate(45.000000) translate(-77.000000, -77.000000) " x="23" y="23" width="108" height="108" rx="43.2"></rect>
                        <path d="M60.2,73.4 L52.4083858,73.4 C51.0674076,73.4 50,74.4754673 50,75.8021234 L50,76.1978766 C50,77.5225566 51.0782711,78.6 52.4083858,78.6 L60.2,78.6 L60.2,86.3916142 C60.2,87.7325924 61.2754673,88.8 62.6021234,88.8 L62.9978766,88.8 C64.3225566,88.8 65.4,87.7217289 65.4,86.3916142 L65.4,78.6 L73.1916142,78.6 C74.5325924,78.6 75.6,77.5245327 75.6,76.1978766 L75.6,75.8021234 C75.6,74.4774434 74.5217289,73.4 73.1916142,73.4 L65.4,73.4 L65.4,65.6083858 C65.4,64.2674076 64.3245327,63.2 62.9978766,63.2 L62.6021234,63.2 C61.2774434,63.2 60.2,64.2782711 60.2,65.6083858 L60.2,73.4 Z M82.8,70.2752075 C82.8,68.9496095 83.872455,67.875 85.1954255,67.875 L103.604574,67.875 C104.927531,67.875 106,68.9467846 106,70.2752075 L106,70.7710888 C106,72.0966868 104.927545,73.1712963 103.604574,73.1712963 L85.1954255,73.1712963 C83.8724685,73.1712963 82.8,72.0995117 82.8,70.7710888 L82.8,70.2752075 Z M82.8,81.2289112 C82.8,79.9033132 83.872455,78.8287037 85.1954255,78.8287037 L103.604574,78.8287037 C104.927531,78.8287037 106,79.9004883 106,81.2289112 L106,81.7247925 C106,83.0503905 104.927545,84.125 103.604574,84.125 L85.1954255,84.125 C83.8724685,84.125 82.8,83.0532154 82.8,81.7247925 L82.8,81.2289112 Z" id="Combined-Shape" fill="url(#linearGradient-1)"></path>
                    </g>
                </g>
            </g>
        </g>
    </g>
</svg>