<?xml version="1.0" encoding="UTF-8" standalone="no"?>
<svg width="7px" height="6px" viewBox="0 0 7 6" version="1.1" xmlns="http://www.w3.org/2000/svg" xmlns:xlink="http://www.w3.org/1999/xlink">
    <!-- Generator: Sketch 40.3 (33839) - http://www.bohemiancoding.com/sketch -->
    <title>Triangle 1</title>
    <desc>Created with Sketch.</desc>
    <defs></defs>
    <g id="Main" stroke="none" stroke-width="1" fill="none" fill-rule="evenodd">
        <g id="Homepage-1360" transform="translate(-736.000000, -630.000000)" fill="#3D414D">
            <g id="HEADER_dark" transform="translate(0.000000, 600.000000)">
                <g id="Menu" transform="translate(348.000000, 22.000000)">
                    <polygon id="Triangle-1" transform="translate(391.500000, 11.000000) scale(1, -1) translate(-391.500000, -11.000000) " points="391.5 8 395 14 388 14"></polygon>
                </g>
            </g>
        </g>
    </g>
</svg>