<?xml version="1.0" encoding="UTF-8" standalone="no"?>
<svg width="40px" height="40px" viewBox="0 0 40 40" version="1.1" xmlns="http://www.w3.org/2000/svg" xmlns:xlink="http://www.w3.org/1999/xlink">
    <!-- Generator: Sketch 40.3 (33839) - http://www.bohemiancoding.com/sketch -->
    <title>Twitter_Color</title>
    <desc>Created with Sketch.</desc>
    <defs></defs>
    <g id="Main" stroke="none" stroke-width="1" fill="none" fill-rule="evenodd">
        <g id="Homepage-1920" transform="translate(-1001.000000, -4876.000000)">
            <g id="Bottom" transform="translate(0.000000, 4054.000000)">
                <g id="Footer" transform="translate(0.000000, 530.000000)">
                    <g id="Group-3" transform="translate(880.000000, 292.000000)">
                        <g id="Twitter" transform="translate(121.000000, 0.000000)">
                            <path d="M0,20 C0,8.95430446 8.95430446,0 20,0 C31.0456955,0 40,8.95430446 40,20 C40,31.0456955 31.0456955,40 20,40 C8.95430446,40 0,31.0456955 0,20 Z" id="back" fill="#55ACEE"></path>
                            <path d="M20.2833559,17.4582035 L20.3158709,18.0204902 L19.7739545,17.9516388 C17.801379,17.6877083 16.0780849,16.7926397 14.6149108,15.2893836 L13.8995812,14.5434931 L13.7153296,15.0943045 C13.3251498,16.322155 13.5744313,17.6188569 14.3873059,18.490975 C14.820839,18.972935 14.723294,19.0417864 13.9754495,18.7549054 C13.7153296,18.6631035 13.4877247,18.5942521 13.4660481,18.6286778 C13.3901798,18.7090045 13.6502996,19.7532511 13.8562279,20.1663597 C14.1380244,20.7401216 14.7124557,21.3024083 15.3410787,21.6351902 L15.8721567,21.8991206 L15.2435337,21.9105959 C14.6365874,21.9105959 14.6149108,21.9220711 14.6799407,22.1630511 C14.8967073,22.9089416 15.7529351,23.700733 16.7067079,24.0449901 L17.3786842,24.2859701 L16.7934145,24.6531778 C15.9263484,25.1810387 14.9075456,25.4793949 13.8887428,25.5023454 C13.4010181,25.5138206 13,25.5597216 13,25.5941473 C13,25.7088997 14.3222759,26.351513 15.0917972,26.6039682 C17.4003609,27.3498587 20.1424577,27.028552 22.2017399,25.7548006 C23.664914,24.8482568 25.1280882,23.0466444 25.8109028,21.3024083 C26.179406,20.372914 26.5479091,18.6745788 26.5479091,17.8598369 C26.5479091,17.3319759 26.5804241,17.2631245 27.1873704,16.6319864 C27.5450352,16.2647788 27.8810233,15.8631455 27.9460533,15.7483931 C28.0544366,15.5303636 28.0435983,15.5303636 27.4908436,15.7254426 C26.5695857,16.0696998 26.4395258,16.0237988 26.8947356,15.5074131 C27.2307237,15.1402055 27.6317418,14.4746417 27.6317418,14.2795626 C27.6317418,14.2451369 27.4691669,14.3025131 27.2849153,14.4057902 C27.0898255,14.5205426 26.6562924,14.6926712 26.3311425,14.7959483 L25.7458729,14.9910274 L25.2147948,14.6123445 C24.92216,14.4057902 24.5103036,14.1762855 24.293537,14.1074341 C23.7407823,13.9467807 22.8953928,13.9697312 22.3968297,14.153335 C21.0420388,14.6697207 20.185811,16.0008483 20.2833559,17.4582035 Z" id="Shape" fill="#FFFFFF"></path>
                        </g>
                    </g>
                </g>
            </g>
        </g>
    </g>
</svg>