<?xml version="1.0" encoding="UTF-8" standalone="no"?>
<svg width="67px" height="44px" viewBox="0 0 67 44" version="1.1" xmlns="http://www.w3.org/2000/svg" xmlns:xlink="http://www.w3.org/1999/xlink">
    <!-- Generator: Sketch 40.3 (33839) - http://www.bohemiancoding.com/sketch -->
    <title>icon1</title>
    <desc>Created with Sketch.</desc>
    <defs></defs>
    <g id="MAIN" stroke="none" stroke-width="1" fill="none" fill-rule="evenodd">
        <g id="Homepage-1920" transform="translate(-361.000000, -814.000000)" stroke-width="2">
            <g id="02-Why-Us" transform="translate(360.000000, 720.000000)">
                <g id="1" transform="translate(5.000000, 96.000000)">
                    <g id="Group-12">
                        <g id="icon1">
                            <path d="M12.9033708,14.0920048 L12.9033708,39.995097 C12.9033708,39.995097 30.0552809,30.538323 46.8296629,39.995097 L46.8296629,14.6100102 M29.8651685,0 L0,9.50335221 L29.8665169,19.0067044 L59.7330337,9.50335221 L29.8651685,0 Z" id="Shape" stroke="#216EBE"></path>
                            <path d="M54.6067416,30.2231717 C54.6067416,29.6699261 55.0480945,29.2214319 55.6085325,29.2214319 L58.998209,29.2214319 C59.5514829,29.2214319 60,29.671638 60,30.2231717 L60,38.0999038 C60,38.6531494 59.558647,39.1016436 58.998209,39.1016436 L55.6085325,39.1016436 C55.0552587,39.1016436 54.6067416,38.6514375 54.6067416,38.0999038 L54.6067416,30.2231717 Z M32.4755056,7.67833596 L56.9946067,11.4370508 L56.9946067,28.6695515" id="Path" stroke="#44A1EB"></path>
                        </g>
                    </g>
                </g>
            </g>
        </g>
    </g>
</svg>