<?xml version="1.0" encoding="UTF-8" standalone="no"?>
<svg width="12px" height="12px" viewBox="0 0 12 12" version="1.1" xmlns="http://www.w3.org/2000/svg" xmlns:xlink="http://www.w3.org/1999/xlink" xmlns:sketch="http://www.bohemiancoding.com/sketch/ns">
    <!-- Generator: Sketch 3.3.2 (12043) - http://www.bohemiancoding.com/sketch -->
    <title>Close Icon</title>
    <desc>Created with Sketch.</desc>
    <defs></defs>
    <g id="Home" stroke="none" stroke-width="1" fill="none" fill-rule="evenodd" sketch:type="MSPage">
        <g id="Forgot-password" sketch:type="MSArtboardGroup" transform="translate(-716.000000, -207.000000)" fill="#04BE5B">
            <g id="Sign-Up-#3-Copy-3" sketch:type="MSLayerGroup" transform="translate(448.000000, 107.000000)">
                <g id="Success" transform="translate(20.000000, 79.000000)" sketch:type="MSShapeGroup">
                    <path d="M259.704914,22.7210857 L255.426249,26.9997504 L259.704914,31.278415 C260.098362,31.6718631 260.098362,32.3109666 259.704914,32.7044146 C259.3108,33.0985285 258.672362,33.0985285 258.278249,32.7044146 L254.00025,28.4264157 L249.721585,32.7044146 C249.328137,33.0985285 248.689699,33.0985285 248.295585,32.7044146 C247.901472,32.3109666 247.901472,31.6718631 248.295585,31.278415 L252.57425,26.9997504 L248.295585,22.7210857 C247.901472,22.3276376 247.901472,21.6891999 248.295585,21.2950861 C248.689699,20.901638 249.328137,20.901638 249.721585,21.2950861 L254.00025,25.5737507 L258.278249,21.2950861 C258.672362,20.901638 259.3108,20.901638 259.704914,21.2950861 C260.098362,21.6891999 260.098362,22.3276376 259.704914,22.7210857 L259.704914,22.7210857 Z" id="Close-Icon"></path>
                </g>
            </g>
        </g>
    </g>
</svg>