<?xml version="1.0" encoding="UTF-8" standalone="no"?>
<svg width="15px" height="15px" viewBox="0 0 15 15" version="1.1" xmlns="http://www.w3.org/2000/svg" xmlns:xlink="http://www.w3.org/1999/xlink" xmlns:sketch="http://www.bohemiancoding.com/sketch/ns">
    <!-- Generator: Sketch 3.3.2 (12043) - http://www.bohemiancoding.com/sketch -->
    <title>Close Icon</title>
    <desc>Created with Sketch.</desc>
    <defs></defs>
    <g id="Home" stroke="none" stroke-width="1" fill="none" fill-rule="evenodd" sketch:type="MSPage">
        <g id="Sign-Up" sketch:type="MSArtboardGroup" transform="translate(-569.000000, -128.000000)" fill="#8493A8">
            <g id="Sign-Up-#3" sketch:type="MSLayerGroup" transform="translate(35.000000, 102.000000)">
                <path d="M543.282812,33.4996879 L548.631142,38.8480188 C549.122953,39.3398289 549.122953,40.1387082 548.631142,40.6305183 C548.1385,41.1231606 547.340453,41.1231606 546.847811,40.6305183 L541.500312,35.2830197 L536.151981,40.6305183 C535.660171,41.1231606 534.862124,41.1231606 534.369482,40.6305183 C533.876839,40.1387082 533.876839,39.3398289 534.369482,38.8480188 L539.717813,33.4996879 L534.369482,28.1513571 C533.876839,27.659547 533.876839,26.8614998 534.369482,26.3688576 C534.862124,25.8770475 535.660171,25.8770475 536.151981,26.3688576 L541.500312,31.7171884 L546.847811,26.3688576 C547.340453,25.8770475 548.1385,25.8770475 548.631142,26.3688576 C549.122953,26.8614998 549.122953,27.659547 548.631142,28.1513571 L543.282812,33.4996879 Z" id="Close-Icon" sketch:type="MSShapeGroup"></path>
            </g>
        </g>
    </g>
</svg>