<?xml version="1.0" encoding="UTF-8" standalone="no"?>
<svg width="18px" height="18px" viewBox="0 0 18 18" version="1.1" xmlns="http://www.w3.org/2000/svg" xmlns:xlink="http://www.w3.org/1999/xlink" xmlns:sketch="http://www.bohemiancoding.com/sketch/ns">
    <!-- Generator: Sketch 3.3.2 (12043) - http://www.bohemiancoding.com/sketch -->
    <title>LinkedIn</title>
    <desc>Created with Sketch.</desc>
    <defs></defs>
    <g id="Home" stroke="none" stroke-width="1" fill="none" fill-rule="evenodd" sketch:type="MSPage">
        <g id="Sign-Up" sketch:type="MSArtboardGroup" transform="translate(-390.000000, -264.000000)" fill="#FFFFFF">
            <g id="Sign-Up-#3" sketch:type="MSLayerGroup" transform="translate(35.000000, 102.000000)">
                <g id="Twitter" transform="translate(340.000000, 150.000000)" sketch:type="MSShapeGroup">
                    <path d="M33,22.6795748 L33,29.2653061 L29.1499158,29.2653061 L29.1499158,23.1206473 C29.1499158,21.577059 28.5930427,20.5236203 27.1994398,20.5236203 C26.1356008,20.5236203 25.5025094,21.2335607 25.2239893,21.9203087 C25.1224207,22.1658184 25.0962768,22.5075357 25.0962768,22.8511996 L25.0962768,29.2653061 L21.244898,29.2653061 C21.244898,29.2653061 21.2967681,18.858271 21.244898,17.7800245 L25.0959009,17.7800245 L25.0959009,19.4080172 C25.0880912,19.4201933 25.0779427,19.433322 25.0705923,19.4451253 L25.0959009,19.4451253 L25.0959009,19.4080172 C25.6075443,18.6265526 26.5212857,17.5102041 28.5665229,17.5102041 C31.1004336,17.5101627 33,19.1517396 33,22.6795748 L33,22.6795748 Z M17.21751,12 C15.8768817,12 15,12.872415 15,14.0196704 C15,15.1419249 15.8515123,16.0408163 17.1654963,16.0408163 L17.1916731,16.0408163 C18.5582658,16.0408163 19.4081633,15.1420936 19.4081633,14.0196704 C19.3824114,12.872415 18.5582658,12 17.21751,12 L17.21751,12 Z M15.3673469,29.2653061 L19.4081633,29.2653061 L19.4081633,17.5102041 L15.3673469,17.5102041 L15.3673469,29.2653061 L15.3673469,29.2653061 Z" id="LinkedIn"></path>
                </g>
            </g>
        </g>
    </g>
</svg>