<?xml version="1.0" encoding="UTF-8" standalone="no"?>
<svg width="16px" height="13px" viewBox="0 0 16 13" version="1.1" xmlns="http://www.w3.org/2000/svg" xmlns:xlink="http://www.w3.org/1999/xlink" xmlns:sketch="http://www.bohemiancoding.com/sketch/ns">
    <!-- Generator: Sketch 3.3.2 (12043) - http://www.bohemiancoding.com/sketch -->
    <title>Mail Icon</title>
    <desc>Created with Sketch.</desc>
    <defs></defs>
    <g id="Home" stroke="none" stroke-width="1" fill="none" fill-rule="evenodd" sketch:type="MSPage">
        <g id="Sign-Up" sketch:type="MSArtboardGroup" transform="translate(-71.000000, -208.000000)" fill="#8493A8">
            <g id="Sign-Up-#3" sketch:type="MSLayerGroup" transform="translate(35.000000, 102.000000)">
                <g id="Input" transform="translate(20.000000, 90.000000)" sketch:type="MSShapeGroup">
                    <path d="M31,29 L17,29 C16.448,29 16,28.5402105 16,27.9736842 L16,17.0263158 C16,16.4591053 16.448,16 17,16 L31,16 C31.5526667,16 32,16.4591053 32,17.0263158 L32,27.9736842 C32,28.5402105 31.5526667,29 31,29 L31,29 Z M30,26.9466842 L30,19.0276316 L24.4873333,24.6922105 C24.352,24.8317895 24.174,24.8981579 23.9966667,24.8940526 C23.8193333,24.8981579 23.6406667,24.8317895 23.5053333,24.6922105 L18,19.0344737 L18,26.9466842 L30,26.9466842 L30,26.9466842 Z M29.0406667,18.0519474 L18.9526667,18.0519474 L23.9966667,23.2355263 L29.0406667,18.0519474 L29.0406667,18.0519474 Z" id="Mail-Icon"></path>
                </g>
            </g>
        </g>
    </g>
</svg>