<?xml version="1.0" encoding="UTF-8" standalone="no"?>
<svg width="28px" height="34px" viewBox="0 0 28 34" version="1.1" xmlns="http://www.w3.org/2000/svg" xmlns:xlink="http://www.w3.org/1999/xlink" xmlns:sketch="http://www.bohemiancoding.com/sketch/ns">
    <!-- Generator: Sketch 3.3.2 (12043) - http://www.bohemiancoding.com/sketch -->
    <title>Award 1st Copy 3</title>
    <desc>Created with Sketch.</desc>
    <defs></defs>
    <g id="Writers" stroke="none" stroke-width="1" fill="none" fill-rule="evenodd" sketch:type="MSPage">
        <g id="Portrait---Writer-Profile---Visitor" sketch:type="MSArtboardGroup" transform="translate(-444.000000, -144.000000)">
            <g id="User-Card-#5" sketch:type="MSLayerGroup" transform="translate(18.000000, 144.000000)">
                <g id="Statistics" transform="translate(1.000000, 0.000000)">
                    <g id="Award-1st-Copy-3" transform="translate(425.000000, 0.000000)">
                        <path d="M3.20623932,16.9861438 L1.36649573,19.8303836 L4.81252991,20.0535959 L3.96606838,23.3118904 L6.63659829,22.6549452 L3.63952137,31.4257808 L8.48938462,29.7298562 L11.330188,33.9140685 L13.9612308,26.2136507 L16.5922735,33.9140685 L19.4327179,29.7298562 L24.2827009,31.4257808 L21.2858632,22.6549452 L23.9563932,23.3118904 L23.1099316,20.0535959 L26.5559658,19.8303836 L24.7159829,16.9861438 L27.9224615,15.7373425 L25.2694017,13.5856781 L27.9224615,11.4337808 L24.7159829,10.1852123 L26.5559658,7.3409726 L23.1099316,7.11764384 L23.9563932,3.85934932 L20.6081197,4.68315068 L20.3786154,1.32984247 L17.4556068,3.12019863 L16.1725128,0 L13.9612308,2.58167123 L11.7498291,0 L10.4666154,3.12019863 L7.54384615,1.32984247 L7.31434188,4.68315068 L3.96606838,3.85934932 L4.81252991,7.11764384 L1.36649573,7.3409726 L3.20623932,10.1852123 L-2.27373675e-13,11.4337808 L2.65282051,13.5856781 L-2.27373675e-13,15.7373425 L3.20623932,16.9861438 L3.20623932,16.9861438 Z M13.9612308,3.87343836 C19.464547,3.87343836 23.9421538,8.23044521 23.9421538,13.5857945 C23.9421538,16.1798082 22.9037607,18.618726 21.0186667,20.4530959 C19.1335726,22.2875822 16.627094,23.2978014 13.9612308,23.2978014 C8.45791453,23.2978014 3.98030769,18.9410274 3.98030769,13.5857945 C3.98030769,8.23044521 8.45791453,3.87343836 13.9612308,3.87343836 L13.9612308,3.87343836 Z" id="Fill-62" fill="#0082D5" sketch:type="MSShapeGroup"></path>
                        <path d="M14.0009573,22.9401027 C19.2799145,22.9401027 23.5745641,18.7610137 23.5745641,13.6243356 C23.5745641,8.48742466 19.2799145,4.30821918 14.0009573,4.30821918 C8.722,4.30821918 4.42735043,8.48742466 4.42735043,13.6243356 C4.42735043,18.7610137 8.722,22.9401027 14.0009573,22.9401027 L14.0009573,22.9401027 Z M14.0009573,5.37118493 C18.6848547,5.37118493 22.4822051,9.06600685 22.4822051,13.6242192 C22.4822051,18.1821986 18.6848547,21.877137 14.0009573,21.877137 C9.31694017,21.877137 5.5197094,18.1821986 5.5197094,13.6242192 C5.5197094,9.06600685 9.31694017,5.37118493 14.0009573,5.37118493 L14.0009573,5.37118493 Z" id="Fill-63" fill="#0082D5" sketch:type="MSShapeGroup"></path>
                        <path d="M13.9855214,21.8621164 C18.6694188,21.8621164 22.4667692,18.1671781 22.4667692,13.6091986 C22.4667692,9.0509863 18.6694188,5.35616438 13.9855214,5.35616438 C9.30150427,5.35616438 5.5042735,9.0509863 5.5042735,13.6091986 C5.5042735,18.1671781 9.30150427,21.8621164 13.9855214,21.8621164" id="Fill-64" fill="#FFFFFF" sketch:type="MSShapeGroup"></path>
                        <path d="M14.0492991,23.3832671 C16.7151624,23.3832671 19.221641,22.3730479 21.106735,20.5385616 C22.9918291,18.7041918 24.0302222,16.265274 24.0302222,13.6712603 C24.0302222,8.31591096 19.5526154,3.95890411 14.0492991,3.95890411 C8.54598291,3.95890411 4.06837607,8.31591096 4.06837607,13.6712603 C4.06837607,19.0264932 8.54598291,23.3832671 14.0492991,23.3832671 L14.0492991,23.3832671 Z M14.0492991,4.35514384 C19.3282564,4.35514384 23.622906,8.53434932 23.622906,13.6712603 C23.622906,18.8079384 19.3282564,22.9870274 14.0492991,22.9870274 C8.77034188,22.9870274 4.47569231,18.8079384 4.47569231,13.6712603 C4.47569231,8.53434932 8.77034188,4.35514384 14.0492991,4.35514384 L14.0492991,4.35514384 Z" id="Fill-65" fill="#FFFFFF" sketch:type="MSShapeGroup"></path>
                        <text id="9" sketch:type="MSTextLayer" font-family="Helvetica Neue" font-size="14" font-weight="bold" fill="#0082D5">
                            <tspan x="10" y="19">9</tspan>
                        </text>
                    </g>
                </g>
            </g>
        </g>
    </g>
</svg>