<?xml version="1.0" encoding="UTF-8" standalone="no"?>
<svg width="28px" height="34px" viewBox="0 0 28 34" version="1.1" xmlns="http://www.w3.org/2000/svg" xmlns:xlink="http://www.w3.org/1999/xlink" xmlns:sketch="http://www.bohemiancoding.com/sketch/ns">
    <!-- Generator: Sketch 3.3.2 (12043) - http://www.bohemiancoding.com/sketch -->
    <title>Award 1st Copy 2</title>
    <desc>Created with Sketch.</desc>
    <defs></defs>
    <g id="Writers" stroke="none" stroke-width="1" fill="none" fill-rule="evenodd" sketch:type="MSPage">
        <g id="Portrait---Writer-Profile---Visitor" sketch:type="MSArtboardGroup" transform="translate(-592.000000, -144.000000)">
            <g id="User-Card-#5" sketch:type="MSLayerGroup" transform="translate(18.000000, 144.000000)">
                <g id="Statistics" transform="translate(1.000000, 0.000000)">
                    <g id="Award-1st-Copy-2" transform="translate(572.000000, 0.000000)">
                        <path d="M4.20623932,16.9861438 L2.36649573,19.8303836 L5.81252991,20.0535959 L4.96606838,23.3118904 L7.63659829,22.6549452 L4.63952137,31.4257808 L9.48938462,29.7298562 L12.330188,33.9140685 L14.9612308,26.2136507 L17.5922735,33.9140685 L20.4327179,29.7298562 L25.2827009,31.4257808 L22.2858632,22.6549452 L24.9563932,23.3118904 L24.1099316,20.0535959 L27.5559658,19.8303836 L25.7159829,16.9861438 L28.9224615,15.7373425 L26.2694017,13.5856781 L28.9224615,11.4337808 L25.7159829,10.1852123 L27.5559658,7.3409726 L24.1099316,7.11764384 L24.9563932,3.85934932 L21.6081197,4.68315068 L21.3786154,1.32984247 L18.4556068,3.12019863 L17.1725128,0 L14.9612308,2.58167123 L12.7498291,0 L11.4666154,3.12019863 L8.54384615,1.32984247 L8.31434188,4.68315068 L4.96606838,3.85934932 L5.81252991,7.11764384 L2.36649573,7.3409726 L4.20623932,10.1852123 L1,11.4337808 L3.65282051,13.5856781 L1,15.7373425 L4.20623932,16.9861438 L4.20623932,16.9861438 Z M14.9612308,3.87343836 C20.464547,3.87343836 24.9421538,8.23044521 24.9421538,13.5857945 C24.9421538,16.1798082 23.9037607,18.618726 22.0186667,20.4530959 C20.1335726,22.2875822 17.627094,23.2978014 14.9612308,23.2978014 C9.45791453,23.2978014 4.98030769,18.9410274 4.98030769,13.5857945 C4.98030769,8.23044521 9.45791453,3.87343836 14.9612308,3.87343836 L14.9612308,3.87343836 Z" id="Fill-62" fill="#0082D5" sketch:type="MSShapeGroup"></path>
                        <path d="M15.0009573,22.9401027 C20.2799145,22.9401027 24.5745641,18.7610137 24.5745641,13.6243356 C24.5745641,8.48742466 20.2799145,4.30821918 15.0009573,4.30821918 C9.722,4.30821918 5.42735043,8.48742466 5.42735043,13.6243356 C5.42735043,18.7610137 9.722,22.9401027 15.0009573,22.9401027 L15.0009573,22.9401027 Z M15.0009573,5.37118493 C19.6848547,5.37118493 23.4822051,9.06600685 23.4822051,13.6242192 C23.4822051,18.1821986 19.6848547,21.877137 15.0009573,21.877137 C10.3169402,21.877137 6.5197094,18.1821986 6.5197094,13.6242192 C6.5197094,9.06600685 10.3169402,5.37118493 15.0009573,5.37118493 L15.0009573,5.37118493 Z" id="Fill-63" fill="#0082D5" sketch:type="MSShapeGroup"></path>
                        <path d="M14.9855214,21.8621164 C19.6694188,21.8621164 23.4667692,18.1671781 23.4667692,13.6091986 C23.4667692,9.0509863 19.6694188,5.35616438 14.9855214,5.35616438 C10.3015043,5.35616438 6.5042735,9.0509863 6.5042735,13.6091986 C6.5042735,18.1671781 10.3015043,21.8621164 14.9855214,21.8621164" id="Fill-64" fill="#FFFFFF" sketch:type="MSShapeGroup"></path>
                        <path d="M15.0492991,23.3832671 C17.7151624,23.3832671 20.221641,22.3730479 22.106735,20.5385616 C23.9918291,18.7041918 25.0302222,16.265274 25.0302222,13.6712603 C25.0302222,8.31591096 20.5526154,3.95890411 15.0492991,3.95890411 C9.54598291,3.95890411 5.06837607,8.31591096 5.06837607,13.6712603 C5.06837607,19.0264932 9.54598291,23.3832671 15.0492991,23.3832671 L15.0492991,23.3832671 Z M15.0492991,4.35514384 C20.3282564,4.35514384 24.622906,8.53434932 24.622906,13.6712603 C24.622906,18.8079384 20.3282564,22.9870274 15.0492991,22.9870274 C9.77034188,22.9870274 5.47569231,18.8079384 5.47569231,13.6712603 C5.47569231,8.53434932 9.77034188,4.35514384 15.0492991,4.35514384 L15.0492991,4.35514384 Z" id="Fill-65" fill="#FFFFFF" sketch:type="MSShapeGroup"></path>
                        <text id="10" sketch:type="MSTextLayer" font-family="Helvetica Neue" font-size="14" font-weight="bold" fill="#0082D5">
                            <tspan x="6" y="19">10</tspan>
                        </text>
                    </g>
                </g>
            </g>
        </g>
    </g>
</svg>