<?xml version="1.0" encoding="UTF-8" standalone="no"?>
<svg width="16px" height="20px" viewBox="0 0 16 20" version="1.1" xmlns="http://www.w3.org/2000/svg" xmlns:xlink="http://www.w3.org/1999/xlink" xmlns:sketch="http://www.bohemiancoding.com/sketch/ns">
    <!-- Generator: Sketch 3.3.1 (12002) - http://www.bohemiancoding.com/sketch -->
    <title>https</title>
    <desc>Created with Sketch.</desc>
    <defs></defs>
    <g id="Home" stroke="none" stroke-width="1" fill="none" fill-rule="evenodd" sketch:type="MSPage">
        <g id="Mobile-Portrait" sketch:type="MSArtboardGroup" transform="translate(-15.000000, -607.000000)" fill="#FFFFFF">
            <g id="mobile-header-2" sketch:type="MSLayerGroup" transform="translate(0.000000, 131.000000)">
                <g id="header-main-menu-dropdown" transform="translate(0.000000, 45.000000)" sketch:type="MSShapeGroup">
                    <g id="https" transform="translate(15.000000, 431.000000)">
                        <path d="M13.3333333,6.66666667 L12.3809524,6.66666667 L12.3809524,4.76190476 C12.3809524,2.0952381 10.2857143,0 7.61904762,0 C4.95238095,0 2.85714286,2.0952381 2.85714286,4.76190476 L2.85714286,6.66666667 L1.9047619,6.66666667 C0.857142857,6.66666667 0,7.52380952 0,8.57142857 L0,18.0952381 C0,19.1428571 0.857142857,20 1.9047619,20 L13.3333333,20 C14.3809524,20 15.2380952,19.1428571 15.2380952,18.0952381 L15.2380952,8.57142857 C15.2380952,7.52380952 14.3809524,6.66666667 13.3333333,6.66666667 L13.3333333,6.66666667 Z M7.61904762,15.2380952 C6.57142857,15.2380952 5.71428571,14.3809524 5.71428571,13.3333333 C5.71428571,12.2857143 6.57142857,11.4285714 7.61904762,11.4285714 C8.66666667,11.4285714 9.52380952,12.2857143 9.52380952,13.3333333 C9.52380952,14.3809524 8.66666667,15.2380952 7.61904762,15.2380952 L7.61904762,15.2380952 Z M10.5714286,6.66666667 L4.66666667,6.66666667 L4.66666667,4.76190476 C4.66666667,3.14285714 6,1.80952381 7.61904762,1.80952381 C9.23809524,1.80952381 10.5714286,3.14285714 10.5714286,4.76190476 L10.5714286,6.66666667 L10.5714286,6.66666667 Z" id="Shape"></path>
                    </g>
                </g>
            </g>
        </g>
    </g>
</svg>