<?xml version="1.0" encoding="UTF-8" standalone="no"?>
<svg width="20px" height="22px" viewBox="0 0 20 22" version="1.1" xmlns="http://www.w3.org/2000/svg" xmlns:xlink="http://www.w3.org/1999/xlink" xmlns:sketch="http://www.bohemiancoding.com/sketch/ns">
    <!-- Generator: Sketch 3.3 (11970) - http://www.bohemiancoding.com/sketch -->
    <title>live-help</title>
    <desc>Created with Sketch.</desc>
    <defs></defs>
    <g id="Header-and-footer" stroke="none" stroke-width="1" fill="none" fill-rule="evenodd" sketch:type="MSPage">
        <g id="Portrait" sketch:type="MSArtboardGroup" transform="translate(-15.000000, -238.000000)" fill="#FFFFFF">
            <g id="header-main-menu-dropdown-copy" sketch:type="MSLayerGroup" transform="translate(0.000000, 67.000000)">
                <g id="live-help" transform="translate(15.000000, 171.000000)" sketch:type="MSShapeGroup">
                    <path d="M17.7777778,0 L2.22222222,0 C1,0 0,0.942857143 0,2.0952381 L0,16.7619048 C0,17.9142857 1,18.8571429 2.22222222,18.8571429 L6.66666667,18.8571429 L10,22 L13.3333333,18.8571429 L17.7777778,18.8571429 C19,18.8571429 20,17.9142857 20,16.7619048 L20,2.0952381 C20,0.942857143 19,0 17.7777778,0 L17.7777778,0 Z M11.1111111,16.7619048 L8.88888889,16.7619048 L8.88888889,14.6666667 L11.1111111,14.6666667 L11.1111111,16.7619048 L11.1111111,16.7619048 Z M13.4444444,8.6952381 L12.4444444,9.63809524 C11.5555556,10.3714286 11.1111111,11 11.1111111,12.5714286 L8.88888889,12.5714286 L8.88888889,12.047619 C8.88888889,10.8952381 9.33333333,9.84761905 10.2222222,9.11428571 L11.5555556,7.75238095 C12,7.43809524 12.2222222,6.91428571 12.2222222,6.28571429 C12.2222222,5.13333333 11.2222222,4.19047619 10,4.19047619 C8.77777778,4.19047619 7.77777778,5.13333333 7.77777778,6.28571429 L5.55555556,6.28571429 C5.55555556,3.98095238 7.55555556,2.0952381 10,2.0952381 C12.4444444,2.0952381 14.4444444,3.98095238 14.4444444,6.28571429 C14.4444444,7.22857143 14,8.06666667 13.4444444,8.6952381 L13.4444444,8.6952381 Z" id="Shape"></path>
                </g>
            </g>
        </g>
    </g>
</svg>